{
  "bounds": [800, 600],
  "children": [
    {
      "bounds": [800, 600],
      "contentsOpaque": true,
      "drawsContent": true,
      "paintInvalidations": [
        {
          "object": "LayoutSVGRoot (positioned) svg",
          "rect": [0, 13, 402, 187],
          "reason": "bounds change"
        },
        {
          "object": "LayoutSVGRoot (positioned) svg",
          "rect": [0, 0, 402, 163],
          "reason": "bounds change"
        },
        {
          "object": "LayoutSVGContainer g id='text2g'",
          "rect": [0, 63, 402, 100],
          "reason": "full"
        },
        {
          "object": "LayoutSVGContainer g id='text1g'",
          "rect": [0, 13, 402, 100],
          "reason": "full"
        },
        {
          "object": "LayoutSVGContainer g id='text3g'",
          "rect": [0, 113, 402, 87],
          "reason": "full"
        },
        {
          "object": "LayoutSVGInlineText #text",
          "rect": [0, 114, 193, 46],
          "reason": "bounds change"
        },
        {
          "object": "LayoutSVGInlineText #text",
          "rect": [0, 114, 193, 46],
          "reason": "bounds change"
        },
        {
          "object": "LayoutSVGInlineText #text",
          "rect": [0, 114, 193, 46],
          "reason": "bounds change"
        },
        {
          "object": "LayoutSVGTSpan tspan",
          "rect": [0, 114, 193, 46],
          "reason": "bounds change"
        },
        {
          "object": "LayoutSVGText text",
          "rect": [0, 114, 193, 46],
          "reason": "forced by layout"
        },
        {
          "object": "LayoutSVGText text",
          "rect": [0, 64, 193, 46],
          "reason": "forced by layout"
        },
        {
          "object": "LayoutSVGInlineText #text",
          "rect": [0, 14, 193, 46],
          "reason": "bounds change"
        },
        {
          "object": "LayoutSVGInlineText #text",
          "rect": [0, 14, 193, 46],
          "reason": "bounds change"
        },
        {
          "object": "LayoutSVGInlineText #text",
          "rect": [0, 14, 193, 46],
          "reason": "bounds change"
        },
        {
          "object": "LayoutSVGTSpan tspan",
          "rect": [0, 14, 193, 46],
          "reason": "bounds change"
        },
        {
          "object": "LayoutSVGText text",
          "rect": [0, 14, 193, 46],
          "reason": "forced by layout"
        },
        {
          "object": "LayoutSVGForeignObject foreignObject",
          "rect": [210, 13, 100, 100],
          "reason": "bounds change"
        },
        {
          "object": "LayoutSVGForeignObject foreignObject",
          "rect": [210, 113, 100, 87],
          "reason": "bounds change"
        },
        {
          "object": "LayoutBlockFlow P",
          "rect": [210, 113, 100, 48],
          "reason": "bounds change"
        },
        {
          "object": "LayoutBlockFlow P",
          "rect": [210, 13, 100, 48],
          "reason": "bounds change"
        },
        {
          "object": "LayoutSVGInlineText #text",
          "rect": [310, 114, 92, 46],
          "reason": "bounds change"
        },
        {
          "object": "LayoutSVGText text",
          "rect": [310, 114, 92, 46],
          "reason": "forced by layout"
        },
        {
          "object": "LayoutSVGViewportContainer svg",
          "rect": [310, 114, 92, 46],
          "reason": "bounds change"
        },
        {
          "object": "LayoutSVGText text",
          "rect": [310, 64, 92, 46],
          "reason": "forced by layout"
        },
        {
          "object": "LayoutSVGInlineText #text",
          "rect": [310, 14, 92, 46],
          "reason": "bounds change"
        },
        {
          "object": "LayoutSVGText text",
          "rect": [310, 14, 92, 46],
          "reason": "forced by layout"
        },
        {
          "object": "LayoutSVGViewportContainer svg",
          "rect": [310, 14, 92, 46],
          "reason": "bounds change"
        },
        {
          "object": "LayoutText #text",
          "rect": [210, 114, 92, 46],
          "reason": "bounds change"
        },
        {
          "object": "LayoutText #text",
          "rect": [210, 14, 92, 46],
          "reason": "bounds change"
        },
        {
          "object": "LayoutSVGContainer g id='text3g'",
          "rect": [0, 3, 14, 4],
          "reason": "full"
        },
        {
          "object": "LayoutSVGInlineText #text",
          "rect": [0, 3, 7, 2],
          "reason": "bounds change"
        },
        {
          "object": "LayoutSVGInlineText #text",
          "rect": [0, 3, 7, 2],
          "reason": "bounds change"
        },
        {
          "object": "LayoutSVGInlineText #text",
          "rect": [0, 3, 7, 2],
          "reason": "bounds change"
        },
        {
          "object": "LayoutSVGTSpan tspan",
          "rect": [0, 3, 7, 2],
          "reason": "bounds change"
        },
        {
          "object": "LayoutSVGText text",
          "rect": [0, 3, 7, 2],
          "reason": "forced by layout"
        },
        {
          "object": "LayoutSVGInlineText #text",
          "rect": [9, 3, 5, 2],
          "reason": "bounds change"
        },
        {
          "object": "LayoutSVGText text",
          "rect": [9, 3, 5, 2],
          "reason": "forced by layout"
        },
        {
          "object": "LayoutSVGViewportContainer svg",
          "rect": [9, 3, 5, 2],
          "reason": "bounds change"
        },
        {
          "object": "LayoutSVGForeignObject foreignObject",
          "rect": [6, 3, 4, 4],
          "reason": "bounds change"
        },
        {
          "object": "LayoutBlockFlow P",
          "rect": [6, 3, 4, 2],
          "reason": "bounds change"
        },
        {
          "object": "LayoutText #text",
          "rect": [6, 3, 4, 2],
          "reason": "bounds change"
        },
        {
          "object": "LayoutBlockFlow P",
          "rect": [0, 0, 1, 1],
          "reason": "bounds change"
        },
        {
          "object": "LayoutSVGContainer g id='text1g'",
          "rect": [0, 0, 1, 1],
          "reason": "full"
        },
        {
          "object": "LayoutSVGForeignObject foreignObject",
          "rect": [0, 0, 1, 1],
          "reason": "bounds change"
        },
        {
          "object": "LayoutText #text",
          "rect": [0, 0, 1, 1],
          "reason": "bounds change"
        },
        {
          "object": "InlineFlowBox",
          "reason": "full"
        },
        {
          "object": "InlineFlowBox",
          "reason": "full"
        },
        {
          "object": "InlineFlowBox",
          "reason": "full"
        },
        {
          "object": "InlineFlowBox",
          "reason": "bounds change"
        },
        {
          "object": "InlineFlowBox",
          "reason": "bounds change"
        },
        {
          "object": "InlineTextBox 'PASS '",
          "reason": "full"
        },
        {
          "object": "InlineTextBox 'PASS '",
          "reason": "full"
        },
        {
          "object": "InlineTextBox 'PASS '",
          "reason": "full"
        },
        {
          "object": "InlineTextBox 'PASS '",
          "reason": "bounds change"
        },
        {
          "object": "InlineTextBox 'PASS '",
          "reason": "bounds change"
        },
        {
          "object": "InlineTextBox 'PASS'",
          "reason": "full"
        },
        {
          "object": "InlineTextBox 'PASS'",
          "reason": "full"
        },
        {
          "object": "InlineTextBox 'PASS'",
          "reason": "full"
        },
        {
          "object": "InlineTextBox 'PASS'",
          "reason": "full"
        },
        {
          "object": "InlineTextBox 'PASS'",
          "reason": "full"
        },
        {
          "object": "InlineTextBox 'PASS'",
          "reason": "full"
        },
        {
          "object": "InlineTextBox 'PASS'",
          "reason": "bounds change"
        },
        {
          "object": "InlineTextBox 'PASS'",
          "reason": "bounds change"
        },
        {
          "object": "InlineTextBox 'PASS'",
          "reason": "bounds change"
        },
        {
          "object": "InlineTextBox 'PASS'",
          "reason": "bounds change"
        },
        {
          "object": "InlineTextBox 'PASS'",
          "reason": "bounds change"
        },
        {
          "object": "InlineTextBox 'PASS'",
          "reason": "bounds change"
        },
        {
          "object": "RootInlineBox",
          "reason": "full"
        },
        {
          "object": "RootInlineBox",
          "reason": "full"
        },
        {
          "object": "RootInlineBox",
          "reason": "full"
        },
        {
          "object": "RootInlineBox",
          "reason": "full"
        },
        {
          "object": "RootInlineBox",
          "reason": "full"
        },
        {
          "object": "RootInlineBox",
          "reason": "full"
        },
        {
          "object": "RootInlineBox",
          "reason": "full"
        },
        {
          "object": "RootInlineBox",
          "reason": "full"
        },
        {
          "object": "RootInlineBox",
          "reason": "full"
        },
        {
          "object": "RootInlineBox",
          "reason": "full"
        },
        {
          "object": "RootInlineBox",
          "reason": "full"
        },
        {
          "object": "RootInlineBox",
          "reason": "full"
        },
        {
          "object": "RootInlineBox",
          "reason": "full"
        },
        {
          "object": "RootInlineBox",
          "reason": "full"
        }
      ]
    }
  ]
}

