{
  "bounds": [800, 600],
  "children": [
    {
      "bounds": [800, 600],
      "contentsOpaque": true,
      "drawsContent": true,
      "paintInvalidations": [
        {
          "object": "LayoutSVGInlineText #text",
          "rect": [16, 523, 446, 77],
          "reason": "selection"
        },
        {
          "object": "LayoutSVGInlineText #text",
          "rect": [186, 13, 128, 34],
          "reason": "selection"
        },
        {
          "object": "LayoutSVGInlineText #text",
          "rect": [520, 13, 127, 34],
          "reason": "selection"
        },
        {
          "object": "LayoutSVGInlineText #text",
          "rect": [353, 13, 127, 34],
          "reason": "selection"
        },
        {
          "object": "LayoutSVGInlineText #text",
          "rect": [266, 485, 113, 29],
          "reason": "selection"
        },
        {
          "object": "LayoutSVGInlineText #text",
          "rect": [266, 201, 113, 21],
          "reason": "selection"
        },
        {
          "object": "LayoutSVGInlineText #text",
          "rect": [428, 485, 104, 29],
          "reason": "selection"
        },
        {
          "object": "LayoutSVGInlineText #text",
          "rect": [428, 201, 104, 21],
          "reason": "selection"
        },
        {
          "object": "LayoutSVGInlineText #text",
          "rect": [590, 485, 95, 29],
          "reason": "selection"
        },
        {
          "object": "LayoutSVGInlineText #text",
          "rect": [590, 201, 95, 21],
          "reason": "selection"
        },
        {
          "object": "LayoutSVGInlineText #text",
          "rect": [378, 36, 77, 34],
          "reason": "selection"
        },
        {
          "object": "LayoutSVGInlineText #text",
          "rect": [16, 491, 76, 34],
          "reason": "selection"
        },
        {
          "object": "LayoutSVGInlineText #text",
          "rect": [16, 441, 76, 34],
          "reason": "selection"
        },
        {
          "object": "LayoutSVGInlineText #text",
          "rect": [16, 391, 76, 34],
          "reason": "selection"
        },
        {
          "object": "LayoutSVGInlineText #text",
          "rect": [16, 341, 76, 34],
          "reason": "selection"
        },
        {
          "object": "LayoutSVGInlineText #text",
          "rect": [16, 291, 76, 34],
          "reason": "selection"
        },
        {
          "object": "LayoutSVGInlineText #text",
          "rect": [16, 241, 76, 34],
          "reason": "selection"
        },
        {
          "object": "LayoutSVGInlineText #text",
          "rect": [16, 191, 76, 34],
          "reason": "selection"
        },
        {
          "object": "LayoutSVGInlineText #text",
          "rect": [16, 141, 76, 34],
          "reason": "selection"
        },
        {
          "object": "LayoutSVGInlineText #text",
          "rect": [16, 91, 76, 34],
          "reason": "selection"
        },
        {
          "object": "LayoutSVGInlineText #text",
          "rect": [590, 285, 62, 54],
          "reason": "selection"
        },
        {
          "object": "LayoutSVGInlineText #text",
          "rect": [590, 435, 62, 29],
          "reason": "selection"
        },
        {
          "object": "LayoutSVGInlineText #text",
          "rect": [590, 151, 62, 21],
          "reason": "selection"
        },
        {
          "object": "LayoutSVGInlineText #text",
          "rect": [428, 285, 61, 54],
          "reason": "selection"
        },
        {
          "object": "LayoutSVGInlineText #text",
          "rect": [266, 285, 61, 54],
          "reason": "selection"
        },
        {
          "object": "LayoutSVGInlineText #text",
          "rect": [428, 435, 61, 29],
          "reason": "selection"
        },
        {
          "object": "LayoutSVGInlineText #text",
          "rect": [266, 435, 61, 29],
          "reason": "selection"
        },
        {
          "object": "LayoutSVGInlineText #text",
          "rect": [428, 151, 61, 21],
          "reason": "selection"
        },
        {
          "object": "LayoutSVGInlineText #text",
          "rect": [266, 151, 61, 21],
          "reason": "selection"
        },
        {
          "object": "LayoutSVGInlineText #text",
          "rect": [225, 36, 50, 34],
          "reason": "selection"
        },
        {
          "object": "LayoutSVGInlineText #text",
          "rect": [428, 335, 46, 54],
          "reason": "selection"
        },
        {
          "object": "LayoutSVGInlineText #text",
          "rect": [590, 335, 45, 54],
          "reason": "selection"
        },
        {
          "object": "LayoutSVGInlineText #text",
          "rect": [266, 335, 44, 54],
          "reason": "selection"
        },
        {
          "object": "LayoutSVGInlineText #text",
          "rect": [563, 36, 41, 34],
          "reason": "selection"
        },
        {
          "object": "LayoutSVGInlineText #text",
          "rect": [573, 235, 39, 54],
          "reason": "selection"
        },
        {
          "object": "LayoutSVGInlineText #text",
          "rect": [411, 235, 39, 54],
          "reason": "selection"
        },
        {
          "object": "LayoutSVGInlineText #text",
          "rect": [546, 101, 38, 21],
          "reason": "selection"
        },
        {
          "object": "LayoutSVGInlineText #text",
          "rect": [250, 235, 37, 54],
          "reason": "selection"
        },
        {
          "object": "LayoutSVGInlineText #text",
          "rect": [250, 385, 37, 45],
          "reason": "selection"
        },
        {
          "object": "LayoutSVGInlineText #text",
          "rect": [398, 101, 37, 21],
          "reason": "selection"
        },
        {
          "object": "LayoutSVGInlineText #text",
          "rect": [250, 101, 37, 21],
          "reason": "selection"
        },
        {
          "object": "LayoutSVGInlineText #text",
          "rect": [565, 385, 29, 45],
          "reason": "selection"
        },
        {
          "object": "LayoutSVGInlineText #text",
          "rect": [411, 385, 29, 45],
          "reason": "selection"
        },
        {
          "object": "InlineTextBox '$Revision: 1.8 $'",
          "reason": "selection"
        },
        {
          "object": "InlineTextBox '1'",
          "reason": "selection"
        },
        {
          "object": "InlineTextBox '1'",
          "reason": "selection"
        },
        {
          "object": "InlineTextBox '1'",
          "reason": "selection"
        },
        {
          "object": "InlineTextBox '1'",
          "reason": "selection"
        },
        {
          "object": "InlineTextBox '1'",
          "reason": "selection"
        },
        {
          "object": "InlineTextBox '1'",
          "reason": "selection"
        },
        {
          "object": "InlineTextBox '1'",
          "reason": "selection"
        },
        {
          "object": "InlineTextBox '1'",
          "reason": "selection"
        },
        {
          "object": "InlineTextBox '1'",
          "reason": "selection"
        },
        {
          "object": "InlineTextBox '1'",
          "reason": "selection"
        },
        {
          "object": "InlineTextBox '1'",
          "reason": "selection"
        },
        {
          "object": "InlineTextBox '1'",
          "reason": "selection"
        },
        {
          "object": "InlineTextBox '1'",
          "reason": "selection"
        },
        {
          "object": "InlineTextBox '1'",
          "reason": "selection"
        },
        {
          "object": "InlineTextBox '1'",
          "reason": "selection"
        },
        {
          "object": "InlineTextBox '1'",
          "reason": "selection"
        },
        {
          "object": "InlineTextBox '1'",
          "reason": "selection"
        },
        {
          "object": "InlineTextBox '1'",
          "reason": "selection"
        },
        {
          "object": "InlineTextBox '1'",
          "reason": "selection"
        },
        {
          "object": "InlineTextBox '1'",
          "reason": "selection"
        },
        {
          "object": "InlineTextBox '1'",
          "reason": "selection"
        },
        {
          "object": "InlineTextBox '1'",
          "reason": "selection"
        },
        {
          "object": "InlineTextBox '1'",
          "reason": "selection"
        },
        {
          "object": "InlineTextBox '1'",
          "reason": "selection"
        },
        {
          "object": "InlineTextBox '1.x 1.y'",
          "reason": "selection"
        },
        {
          "object": "InlineTextBox '1.x 2.y'",
          "reason": "selection"
        },
        {
          "object": "InlineTextBox '1.x 4.y'",
          "reason": "selection"
        },
        {
          "object": "InlineTextBox '1234'",
          "reason": "selection"
        },
        {
          "object": "InlineTextBox '1234'",
          "reason": "selection"
        },
        {
          "object": "InlineTextBox '1234'",
          "reason": "selection"
        },
        {
          "object": "InlineTextBox '2'",
          "reason": "selection"
        },
        {
          "object": "InlineTextBox '2'",
          "reason": "selection"
        },
        {
          "object": "InlineTextBox '2'",
          "reason": "selection"
        },
        {
          "object": "InlineTextBox '2'",
          "reason": "selection"
        },
        {
          "object": "InlineTextBox '2'",
          "reason": "selection"
        },
        {
          "object": "InlineTextBox '2'",
          "reason": "selection"
        },
        {
          "object": "InlineTextBox '2'",
          "reason": "selection"
        },
        {
          "object": "InlineTextBox '2'",
          "reason": "selection"
        },
        {
          "object": "InlineTextBox '2'",
          "reason": "selection"
        },
        {
          "object": "InlineTextBox '2'",
          "reason": "selection"
        },
        {
          "object": "InlineTextBox '2'",
          "reason": "selection"
        },
        {
          "object": "InlineTextBox '2'",
          "reason": "selection"
        },
        {
          "object": "InlineTextBox '2'",
          "reason": "selection"
        },
        {
          "object": "InlineTextBox '2'",
          "reason": "selection"
        },
        {
          "object": "InlineTextBox '2'",
          "reason": "selection"
        },
        {
          "object": "InlineTextBox '2.x 1.y'",
          "reason": "selection"
        },
        {
          "object": "InlineTextBox '2.x 2.y'",
          "reason": "selection"
        },
        {
          "object": "InlineTextBox '2.x 4.y'",
          "reason": "selection"
        },
        {
          "object": "InlineTextBox '234'",
          "reason": "selection"
        },
        {
          "object": "InlineTextBox '234'",
          "reason": "selection"
        },
        {
          "object": "InlineTextBox '234'",
          "reason": "selection"
        },
        {
          "object": "InlineTextBox '234'",
          "reason": "selection"
        },
        {
          "object": "InlineTextBox '234'",
          "reason": "selection"
        },
        {
          "object": "InlineTextBox '234'",
          "reason": "selection"
        },
        {
          "object": "InlineTextBox '234'",
          "reason": "selection"
        },
        {
          "object": "InlineTextBox '234'",
          "reason": "selection"
        },
        {
          "object": "InlineTextBox '234'",
          "reason": "selection"
        },
        {
          "object": "InlineTextBox '3'",
          "reason": "selection"
        },
        {
          "object": "InlineTextBox '3'",
          "reason": "selection"
        },
        {
          "object": "InlineTextBox '3'",
          "reason": "selection"
        },
        {
          "object": "InlineTextBox '3'",
          "reason": "selection"
        },
        {
          "object": "InlineTextBox '3'",
          "reason": "selection"
        },
        {
          "object": "InlineTextBox '3'",
          "reason": "selection"
        },
        {
          "object": "InlineTextBox '3'",
          "reason": "selection"
        },
        {
          "object": "InlineTextBox '3'",
          "reason": "selection"
        },
        {
          "object": "InlineTextBox '3'",
          "reason": "selection"
        },
        {
          "object": "InlineTextBox '3'",
          "reason": "selection"
        },
        {
          "object": "InlineTextBox '3'",
          "reason": "selection"
        },
        {
          "object": "InlineTextBox '3'",
          "reason": "selection"
        },
        {
          "object": "InlineTextBox '3'",
          "reason": "selection"
        },
        {
          "object": "InlineTextBox '3'",
          "reason": "selection"
        },
        {
          "object": "InlineTextBox '3'",
          "reason": "selection"
        },
        {
          "object": "InlineTextBox '4'",
          "reason": "selection"
        },
        {
          "object": "InlineTextBox '4'",
          "reason": "selection"
        },
        {
          "object": "InlineTextBox '4'",
          "reason": "selection"
        },
        {
          "object": "InlineTextBox '4'",
          "reason": "selection"
        },
        {
          "object": "InlineTextBox '4'",
          "reason": "selection"
        },
        {
          "object": "InlineTextBox '4'",
          "reason": "selection"
        },
        {
          "object": "InlineTextBox '4'",
          "reason": "selection"
        },
        {
          "object": "InlineTextBox '4'",
          "reason": "selection"
        },
        {
          "object": "InlineTextBox '4'",
          "reason": "selection"
        },
        {
          "object": "InlineTextBox '4'",
          "reason": "selection"
        },
        {
          "object": "InlineTextBox '4'",
          "reason": "selection"
        },
        {
          "object": "InlineTextBox '4'",
          "reason": "selection"
        },
        {
          "object": "InlineTextBox '4'",
          "reason": "selection"
        },
        {
          "object": "InlineTextBox '4'",
          "reason": "selection"
        },
        {
          "object": "InlineTextBox '4'",
          "reason": "selection"
        },
        {
          "object": "InlineTextBox '4.x 1.y'",
          "reason": "selection"
        },
        {
          "object": "InlineTextBox '4.x 2.y'",
          "reason": "selection"
        },
        {
          "object": "InlineTextBox '4.x 4.y'",
          "reason": "selection"
        },
        {
          "object": "InlineTextBox 'end'",
          "reason": "selection"
        },
        {
          "object": "InlineTextBox 'middle'",
          "reason": "selection"
        },
        {
          "object": "InlineTextBox 'start'",
          "reason": "selection"
        },
        {
          "object": "InlineTextBox 'text-anchor'",
          "reason": "selection"
        },
        {
          "object": "InlineTextBox 'text-anchor'",
          "reason": "selection"
        },
        {
          "object": "InlineTextBox 'text-anchor'",
          "reason": "selection"
        },
        {
          "object": "LayoutSVGText text",
          "reason": "selection"
        },
        {
          "object": "LayoutSVGText text",
          "reason": "selection"
        },
        {
          "object": "LayoutSVGText text",
          "reason": "selection"
        },
        {
          "object": "LayoutSVGText text",
          "reason": "selection"
        },
        {
          "object": "LayoutSVGText text",
          "reason": "selection"
        },
        {
          "object": "LayoutSVGText text",
          "reason": "selection"
        },
        {
          "object": "LayoutSVGText text",
          "reason": "selection"
        },
        {
          "object": "LayoutSVGText text",
          "reason": "selection"
        },
        {
          "object": "LayoutSVGText text",
          "reason": "selection"
        },
        {
          "object": "LayoutSVGText text",
          "reason": "selection"
        },
        {
          "object": "LayoutSVGText text",
          "reason": "selection"
        },
        {
          "object": "LayoutSVGText text",
          "reason": "selection"
        },
        {
          "object": "LayoutSVGText text",
          "reason": "selection"
        },
        {
          "object": "LayoutSVGText text",
          "reason": "selection"
        },
        {
          "object": "LayoutSVGText text",
          "reason": "selection"
        },
        {
          "object": "LayoutSVGText text",
          "reason": "selection"
        },
        {
          "object": "LayoutSVGText text",
          "reason": "selection"
        },
        {
          "object": "LayoutSVGText text",
          "reason": "selection"
        },
        {
          "object": "LayoutSVGText text",
          "reason": "selection"
        },
        {
          "object": "LayoutSVGText text",
          "reason": "selection"
        },
        {
          "object": "LayoutSVGText text",
          "reason": "selection"
        },
        {
          "object": "LayoutSVGText text",
          "reason": "selection"
        },
        {
          "object": "LayoutSVGText text",
          "reason": "selection"
        },
        {
          "object": "LayoutSVGText text",
          "reason": "selection"
        },
        {
          "object": "LayoutSVGText text",
          "reason": "selection"
        },
        {
          "object": "LayoutSVGText text",
          "reason": "selection"
        },
        {
          "object": "LayoutSVGText text",
          "reason": "selection"
        },
        {
          "object": "LayoutSVGText text",
          "reason": "selection"
        },
        {
          "object": "LayoutSVGText text",
          "reason": "selection"
        },
        {
          "object": "LayoutSVGText text",
          "reason": "selection"
        },
        {
          "object": "LayoutSVGText text",
          "reason": "selection"
        },
        {
          "object": "LayoutSVGText text",
          "reason": "selection"
        },
        {
          "object": "LayoutSVGText text",
          "reason": "selection"
        },
        {
          "object": "LayoutSVGText text",
          "reason": "selection"
        },
        {
          "object": "LayoutSVGText text",
          "reason": "selection"
        },
        {
          "object": "LayoutSVGText text",
          "reason": "selection"
        },
        {
          "object": "LayoutSVGText text",
          "reason": "selection"
        },
        {
          "object": "LayoutSVGText text",
          "reason": "selection"
        },
        {
          "object": "LayoutSVGText text",
          "reason": "selection"
        },
        {
          "object": "LayoutSVGText text",
          "reason": "selection"
        },
        {
          "object": "LayoutSVGText text",
          "reason": "selection"
        },
        {
          "object": "LayoutSVGText text",
          "reason": "selection"
        },
        {
          "object": "LayoutSVGText text id='revision'",
          "reason": "selection"
        }
      ]
    }
  ]
}

