{
  "bounds": [800, 600],
  "children": [
    {
      "bounds": [800, 600],
      "contentsOpaque": true,
      "drawsContent": true,
      "paintInvalidations": [
        {
          "object": "LayoutTableRow TR id='row'",
          "rect": [0, 202, 106, 100],
          "reason": "incremental"
        },
        {
          "object": "LayoutTableCell TD",
          "rect": [2, 102, 102, 200],
          "reason": "forced by layout"
        },
        {
          "object": "LayoutText #text",
          "rect": [3, 193, 63, 17],
          "reason": "bounds change"
        },
        {
          "object": "LayoutText #text",
          "rect": [3, 143, 63, 17],
          "reason": "bounds change"
        },
        {
          "object": "InlineTextBox 'MIDDLE'",
          "reason": "full"
        },
        {
          "object": "InlineTextBox 'MIDDLE'",
          "reason": "bounds change"
        },
        {
          "object": "RootInlineBox",
          "reason": "full"
        },
        {
          "object": "RootInlineBox",
          "reason": "full"
        }
      ]
    }
  ]
}

