{
  "bounds": [800, 600],
  "children": [
    {
      "bounds": [800, 600],
      "contentsOpaque": true,
      "drawsContent": true,
      "paintInvalidations": [
        {
          "object": "LayoutBlockFlow DIV",
          "rect": [7, 41, 786, 56],
          "reason": "outline"
        },
        {
          "object": "LayoutBlockFlow DIV id='div'",
          "rect": [8, 78, 784, 18],
          "reason": "layoutObject insertion"
        },
        {
          "object": "LayoutBlockFlow DIV id='div'",
          "rect": [7, 77, 3, 19],
          "reason": "invalidate paint rectangle"
        },
        {
          "object": "LayoutBlockFlow DIV id='div'",
          "rect": [7, 59, 3, 19],
          "reason": "invalidate paint rectangle"
        },
        {
          "object": "InlineTextBox '\n'",
          "reason": "layoutObject insertion"
        },
        {
          "object": "LayoutBR BR",
          "reason": "layoutObject insertion"
        },
        {
          "object": "RootInlineBox",
          "reason": "full"
        }
      ]
    }
  ]
}

