{
  "bounds": [800, 600],
  "children": [
    {
      "bounds": [800, 600],
      "contentsOpaque": true,
      "drawsContent": true,
      "paintInvalidations": [
        {
          "object": "LayoutBlockFlow P",
          "rect": [8, 332, 418, 234],
          "reason": "invalidate paint rectangle"
        },
        {
          "object": "LayoutText #text",
          "rect": [49, 368, 320, 54],
          "reason": "bounds change"
        },
        {
          "object": "LayoutText #text",
          "rect": [65, 368, 304, 18],
          "reason": "bounds change"
        },
        {
          "object": "LayoutText #text",
          "rect": [49, 368, 301, 18],
          "reason": "bounds change"
        },
        {
          "object": "LayoutText #text",
          "rect": [178, 350, 146, 18],
          "reason": "bounds change"
        },
        {
          "object": "LayoutText #text",
          "rect": [162, 350, 146, 18],
          "reason": "bounds change"
        },
        {
          "object": "LayoutBlockFlow (floating) SPAN id='blueFloat'",
          "rect": [46, 353, 16, 65],
          "reason": "incremental"
        },
        {
          "object": "InlineTextBox ' was in a furious passion, and went\n'",
          "reason": "full"
        },
        {
          "object": "InlineTextBox 'Alice began to feel very uneasy: to be sure, she had not as\n'",
          "reason": "full"
        },
        {
          "object": "InlineTextBox 'Queen'",
          "reason": "full"
        },
        {
          "object": "InlineTextBox 'The players all played at once without waiting\n'",
          "reason": "bounds change"
        },
        {
          "object": "InlineTextBox 'The players all played at once without waiting'",
          "reason": "full"
        },
        {
          "object": "InlineTextBox 'a very short time '",
          "reason": "full"
        },
        {
          "object": "InlineTextBox 'a very short time '",
          "reason": "bounds change"
        },
        {
          "object": "InlineTextBox 'about, and shouting \u2018Off with his head!\u2019 or \u2018Off with'",
          "reason": "full"
        },
        {
          "object": "InlineTextBox 'become of\n'",
          "reason": "full"
        },
        {
          "object": "InlineTextBox 'difficult game indeed.\n'",
          "reason": "full"
        },
        {
          "object": "InlineTextBox 'difficult game indeed.\n'",
          "reason": "bounds change"
        },
        {
          "object": "InlineTextBox 'for the hedgehogs; and in\n'",
          "reason": "full"
        },
        {
          "object": "InlineTextBox 'for turns,\n'",
          "reason": "full"
        },
        {
          "object": "InlineTextBox 'for'",
          "reason": "bounds change"
        },
        {
          "object": "InlineTextBox 'had any dispute with the Queen, but she knew that it might'",
          "reason": "full"
        },
        {
          "object": "InlineTextBox 'happen any minute, \u2018and then,\u2019 thought she, \u2018what would'",
          "reason": "full"
        },
        {
          "object": "InlineTextBox 'her head!\u2019 about once in a minute.\n'",
          "reason": "full"
        },
        {
          "object": "InlineTextBox 'here; the great\n'",
          "reason": "full"
        },
        {
          "object": "InlineTextBox 'me? They\u2019re dreadfully fond of beheading people'",
          "reason": "full"
        },
        {
          "object": "InlineTextBox 'other parts of\n'",
          "reason": "full"
        },
        {
          "object": "InlineTextBox 'quarrelling all the while, and fighting for'",
          "reason": "bounds change"
        },
        {
          "object": "InlineTextBox 'quarrelling all the while, and fighting'",
          "reason": "full"
        },
        {
          "object": "InlineTextBox 'stamping'",
          "reason": "full"
        },
        {
          "object": "InlineTextBox 'that it was a very\n'",
          "reason": "full"
        },
        {
          "object": "InlineTextBox 'the ground, Alice soon came to the conclusion'",
          "reason": "full"
        },
        {
          "object": "InlineTextBox 'the hedgehogs; and in\n'",
          "reason": "bounds change"
        },
        {
          "object": "InlineTextBox 'the'",
          "reason": "full"
        },
        {
          "object": "InlineTextBox 'turns,\n'",
          "reason": "bounds change"
        },
        {
          "object": "InlineTextBox 'wonder is, that there\u2018s any one left alive!\u2019'",
          "reason": "full"
        },
        {
          "object": "InlineTextBox 'yet'",
          "reason": "full"
        },
        {
          "object": "RootInlineBox",
          "reason": "full"
        },
        {
          "object": "RootInlineBox",
          "reason": "full"
        },
        {
          "object": "RootInlineBox",
          "reason": "full"
        },
        {
          "object": "RootInlineBox",
          "reason": "full"
        },
        {
          "object": "RootInlineBox",
          "reason": "full"
        },
        {
          "object": "RootInlineBox",
          "reason": "full"
        },
        {
          "object": "RootInlineBox",
          "reason": "full"
        },
        {
          "object": "RootInlineBox",
          "reason": "full"
        },
        {
          "object": "RootInlineBox",
          "reason": "full"
        },
        {
          "object": "RootInlineBox",
          "reason": "full"
        },
        {
          "object": "RootInlineBox",
          "reason": "full"
        },
        {
          "object": "RootInlineBox",
          "reason": "full"
        },
        {
          "object": "RootInlineBox",
          "reason": "full"
        }
      ]
    }
  ]
}

