{
  "bounds": [800, 600],
  "children": [
    {
      "bounds": [800, 600],
      "contentsOpaque": true,
      "drawsContent": true,
      "paintInvalidations": [
        {
          "object": "LayoutBlockFlow INPUT id='checkbox'",
          "rect": [10, 61, 31, 30],
          "reason": "subtree"
        }
      ]
    }
  ]
}

