{
  "bounds": [2000, 2000],
  "children": [
    {
      "bounds": [2000, 2000],
      "contentsOpaque": true,
      "drawsContent": true,
      "paintInvalidations": [
        {
          "object": "LayoutText #text",
          "rect": [0, 288, 415, 18],
          "reason": "style change"
        },
        {
          "object": "InlineTextBox 'Text Text Text Text Text Text Text Text Text Text Text Text Text'",
          "reason": "style change"
        }
      ]
    }
  ]
}

