{
  "bounds": [800, 600],
  "children": [
    {
      "bounds": [800, 600],
      "contentsOpaque": true,
      "drawsContent": true,
      "paintInvalidations": [
        {
          "object": "LayoutText #text",
          "rect": [18, 153, 132, 47],
          "reason": "layoutObject removal"
        },
        {
          "object": "InlineTextBox '\u1EA6\u1EA4\u1EAA\u1EA8\u1EB0'",
          "reason": "full"
        },
        {
          "object": "RootInlineBox",
          "reason": "full"
        }
      ]
    }
  ]
}

