{
  "bounds": [800, 600],
  "children": [
    {
      "bounds": [800, 600],
      "contentsOpaque": true,
      "drawsContent": true,
      "paintInvalidations": [
        {
          "object": "LayoutSVGInlineText #text",
          "rect": [10, 63, 306, 374],
          "reason": "bounds change"
        },
        {
          "object": "LayoutSVGInlineText #text",
          "rect": [10, 63, 306, 374],
          "reason": "bounds change"
        },
        {
          "object": "LayoutSVGInlineText #text",
          "rect": [10, 63, 306, 374],
          "reason": "bounds change"
        },
        {
          "object": "LayoutSVGInlineText #text",
          "rect": [10, 63, 306, 374],
          "reason": "bounds change"
        },
        {
          "object": "LayoutSVGInlineText #text",
          "rect": [10, 63, 306, 374],
          "reason": "bounds change"
        },
        {
          "object": "LayoutSVGInlineText #text",
          "rect": [10, 63, 306, 374],
          "reason": "layoutObject removal"
        },
        {
          "object": "LayoutSVGRoot (positioned) svg",
          "rect": [10, 63, 306, 374],
          "reason": "bounds change"
        },
        {
          "object": "LayoutSVGTSpan tspan",
          "rect": [10, 63, 306, 374],
          "reason": "bounds change"
        },
        {
          "object": "LayoutSVGTSpan tspan",
          "rect": [10, 63, 306, 374],
          "reason": "bounds change"
        },
        {
          "object": "LayoutSVGTSpan tspan id='modify'",
          "rect": [10, 63, 306, 374],
          "reason": "bounds change"
        },
        {
          "object": "LayoutSVGText text",
          "rect": [10, 63, 306, 374],
          "reason": "full"
        },
        {
          "object": "InlineFlowBox",
          "reason": "full"
        },
        {
          "object": "InlineFlowBox",
          "reason": "full"
        },
        {
          "object": "InlineFlowBox",
          "reason": "full"
        },
        {
          "object": "InlineFlowBox",
          "reason": "bounds change"
        },
        {
          "object": "InlineFlowBox",
          "reason": "bounds change"
        },
        {
          "object": "InlineTextBox ' '",
          "reason": "bounds change"
        },
        {
          "object": "InlineTextBox ''",
          "reason": "full"
        },
        {
          "object": "InlineTextBox ''",
          "reason": "full"
        },
        {
          "object": "InlineTextBox 'FAIL'",
          "reason": "full"
        },
        {
          "object": "InlineTextBox 'PASS'",
          "reason": "full"
        },
        {
          "object": "InlineTextBox 'PASS'",
          "reason": "full"
        },
        {
          "object": "InlineTextBox 'PASS'",
          "reason": "bounds change"
        },
        {
          "object": "InlineTextBox 'PASS'",
          "reason": "bounds change"
        },
        {
          "object": "RootInlineBox",
          "reason": "full"
        },
        {
          "object": "RootInlineBox",
          "reason": "full"
        }
      ]
    }
  ]
}

