{
  "bounds": [800, 600],
  "children": [
    {
      "bounds": [800, 600],
      "contentsOpaque": true,
      "drawsContent": true,
      "paintInvalidations": [
        {
          "object": "LayoutBlockFlow INPUT",
          "rect": [5, 6, 23, 23],
          "reason": "subtree"
        }
      ]
    }
  ]
}

