<?xml version="1.0" encoding="UTF-8"?>
<grit latest_public_release="0" current_release="1">
  <outputs>
    <output filename="grit/blink_resources.h" type="rc_header">
      <emit emit_type='prepend'></emit>
    </output>
    <output filename="blink_resources.pak" type="data_package" />
  </outputs>
  <release seq="1">
    <includes>
      <include name="IDR_UASTYLE_HTML_CSS" file="../Source/core/css/html.css" type="BINDATA"/>
      <include name="IDR_UASTYLE_QUIRKS_CSS" file="../Source/core/css/quirks.css" type="BINDATA"/>
      <include name="IDR_UASTYLE_VIEW_SOURCE_CSS" file="../Source/core/css/view-source.css" type="BINDATA"/>
      <if expr="is_android">
        <include name="IDR_UASTYLE_THEME_CHROMIUM_ANDROID_CSS" file="../Source/core/css/themeChromiumAndroid.css" type="BINDATA"/>
        <include name="IDR_UASTYLE_MEDIA_CONTROLS_ANDROID_CSS" file="../Source/core/css/mediaControlsAndroid.css" type="BINDATA"/>
        <include name="IDR_UASTYLE_MEDIA_CONTROLS_ANDROID_NEW_CSS" file="../Source/core/css/mediaControlsAndroidNew.css" type="BINDATA"/>
      </if>
      <if expr="not is_win">
        <include name="IDR_UASTYLE_THEME_CHROMIUM_LINUX_CSS" file="../Source/core/css/themeChromiumLinux.css" type="BINDATA"/>
      </if>
      <if expr="is_macosx">
        <include name="IDR_UASTYLE_THEME_MAC_CSS" file="../Source/core/css/themeMac.css" type="BINDATA"/>
      </if>
      <include name="IDR_UASTYLE_THEME_INPUT_MULTIPLE_FIELDS_CSS" file="../Source/core/css/themeInputMultipleFields.css" type="BINDATA"/>
      <include name="IDR_UASTYLE_THEME_WIN_CSS" file="../Source/core/css/themeWin.css" type="BINDATA"/>
      <include name="IDR_UASTYLE_THEME_WIN_QUIRKS_CSS" file="../Source/core/css/themeWinQuirks.css" type="BINDATA"/>
      <include name="IDR_UASTYLE_SVG_CSS" file="../Source/core/css/svg.css" type="BINDATA"/>
      <include name="IDR_UASTYLE_MATHML_CSS" file="../Source/core/css/mathml.css" type="BINDATA"/>
      <include name="IDR_UASTYLE_MEDIA_CONTROLS_CSS" file="../Source/core/css/mediaControls.css" type="BINDATA"/>
      <include name="IDR_UASTYLE_MEDIA_CONTROLS_NEW_CSS" file="../Source/core/css/mediaControlsNew.css" type="BINDATA"/>
      <include name="IDR_UASTYLE_FULLSCREEN_CSS" file="../Source/core/css/fullscreen.css" type="BINDATA"/>
      <include name="IDR_UASTYLE_XHTMLMP_CSS" file="../Source/core/css/xhtmlmp.css" type="BINDATA"/>
      <include name="IDR_UASTYLE_VIEWPORT_ANDROID_CSS" file="../Source/core/css/viewportAndroid.css" type="BINDATA"/>
      <include name="IDR_UASTYLE_VIEWPORT_TELEVISION_CSS" file="../Source/core/css/viewportTelevision.css" type="BINDATA"/>

      <include name="IDR_INSPECTOR_OVERLAY_PAGE_HTML" file="../Source/core/inspector/InspectorOverlayPage.html" type="BINDATA"/>
      <include name="IDR_PRIVATE_SCRIPT_DOCUMENTEXECCOMMAND_JS" file="../Source/core/editing/js/DocumentExecCommand.js" type="BINDATA"/>
      <include name="IDR_PRIVATE_SCRIPT_DOCUMENTXMLTREEVIEWER_CSS" file="../Source/core/xml/DocumentXMLTreeViewer.css" type="BINDATA"/>
      <include name="IDR_PRIVATE_SCRIPT_DOCUMENTXMLTREEVIEWER_JS" file="../Source/core/xml/DocumentXMLTreeViewer.js" type="BINDATA"/>
      <include name="IDR_PRIVATE_SCRIPT_HTMLMARQUEEELEMENT_JS" file="../Source/core/html/HTMLMarqueeElement.js" type="BINDATA"/>
      <include name="IDR_PRIVATE_SCRIPT_PRIVATESCRIPTRUNNER_JS" file="../Source/bindings/core/v8/PrivateScriptRunner.js" type="BINDATA"/>
      <if expr="not is_android">
        <include name="IDR_PICKER_COMMON_JS" file="../Source/web/resources/pickerCommon.js" type="BINDATA"/>
        <include name="IDR_PICKER_COMMON_CSS" file="../Source/web/resources/pickerCommon.css" type="BINDATA"/>
        <include name="IDR_CALENDAR_PICKER_CSS" file="../Source/web/resources/calendarPicker.css" type="BINDATA"/>
        <include name="IDR_CALENDAR_PICKER_JS" file="../Source/web/resources/calendarPicker.js" type="BINDATA"/>
        <include name="IDR_PICKER_BUTTON_CSS" file="../Source/web/resources/pickerButton.css" type="BINDATA"/>
        <include name="IDR_SUGGESTION_PICKER_CSS" file="../Source/web/resources/suggestionPicker.css" type="BINDATA"/>
        <include name="IDR_SUGGESTION_PICKER_JS" file="../Source/web/resources/suggestionPicker.js" type="BINDATA"/>
        <include name="IDR_COLOR_SUGGESTION_PICKER_CSS" file="../Source/web/resources/colorSuggestionPicker.css" type="BINDATA"/>
        <include name="IDR_COLOR_SUGGESTION_PICKER_JS" file="../Source/web/resources/colorSuggestionPicker.js" type="BINDATA"/>
        <include name="IDR_LIST_PICKER_CSS" file="../Source/web/resources/listPicker.css" type="BINDATA"/>
        <include name="IDR_LIST_PICKER_JS" file="../Source/web/resources/listPicker.js" type="BINDATA"/>
      </if>
      <if expr="use_concatenated_impulse_responses">
        <include name="IDR_AUDIO_SPATIALIZATION_COMPOSITE" file="../Source/platform/audio/resources/Composite.wav" type="BINDATA"/>
      </if>
      <if expr="not use_concatenated_impulse_responses">
        <include name="IDR_AUDIO_SPATIALIZATION_T000_P000" file="..\Source\platform\audio\resources\IRC_Composite_C_R0195_T000_P000.wav" type="BINDATA"/>
        <include name="IDR_AUDIO_SPATIALIZATION_T000_P015" file="..\Source\platform\audio\resources\IRC_Composite_C_R0195_T000_P015.wav" type="BINDATA"/>
        <include name="IDR_AUDIO_SPATIALIZATION_T000_P030" file="..\Source\platform\audio\resources\IRC_Composite_C_R0195_T000_P030.wav" type="BINDATA"/>
        <include name="IDR_AUDIO_SPATIALIZATION_T000_P045" file="..\Source\platform\audio\resources\IRC_Composite_C_R0195_T000_P045.wav" type="BINDATA"/>
        <include name="IDR_AUDIO_SPATIALIZATION_T000_P060" file="..\Source\platform\audio\resources\IRC_Composite_C_R0195_T000_P060.wav" type="BINDATA"/>
        <include name="IDR_AUDIO_SPATIALIZATION_T000_P075" file="..\Source\platform\audio\resources\IRC_Composite_C_R0195_T000_P075.wav" type="BINDATA"/>
        <include name="IDR_AUDIO_SPATIALIZATION_T000_P090" file="..\Source\platform\audio\resources\IRC_Composite_C_R0195_T000_P090.wav" type="BINDATA"/>
        <include name="IDR_AUDIO_SPATIALIZATION_T000_P315" file="..\Source\platform\audio\resources\IRC_Composite_C_R0195_T000_P315.wav" type="BINDATA"/>
        <include name="IDR_AUDIO_SPATIALIZATION_T000_P330" file="..\Source\platform\audio\resources\IRC_Composite_C_R0195_T000_P330.wav" type="BINDATA"/>
        <include name="IDR_AUDIO_SPATIALIZATION_T000_P345" file="..\Source\platform\audio\resources\IRC_Composite_C_R0195_T000_P345.wav" type="BINDATA"/>
        <include name="IDR_AUDIO_SPATIALIZATION_T015_P000" file="..\Source\platform\audio\resources\IRC_Composite_C_R0195_T015_P000.wav" type="BINDATA"/>
        <include name="IDR_AUDIO_SPATIALIZATION_T015_P015" file="..\Source\platform\audio\resources\IRC_Composite_C_R0195_T015_P015.wav" type="BINDATA"/>
        <include name="IDR_AUDIO_SPATIALIZATION_T015_P030" file="..\Source\platform\audio\resources\IRC_Composite_C_R0195_T015_P030.wav" type="BINDATA"/>
        <include name="IDR_AUDIO_SPATIALIZATION_T015_P045" file="..\Source\platform\audio\resources\IRC_Composite_C_R0195_T015_P045.wav" type="BINDATA"/>
        <include name="IDR_AUDIO_SPATIALIZATION_T015_P060" file="..\Source\platform\audio\resources\IRC_Composite_C_R0195_T015_P060.wav" type="BINDATA"/>
        <include name="IDR_AUDIO_SPATIALIZATION_T015_P075" file="..\Source\platform\audio\resources\IRC_Composite_C_R0195_T015_P075.wav" type="BINDATA"/>
        <include name="IDR_AUDIO_SPATIALIZATION_T015_P090" file="..\Source\platform\audio\resources\IRC_Composite_C_R0195_T015_P090.wav" type="BINDATA"/>
        <include name="IDR_AUDIO_SPATIALIZATION_T015_P315" file="..\Source\platform\audio\resources\IRC_Composite_C_R0195_T015_P315.wav" type="BINDATA"/>
        <include name="IDR_AUDIO_SPATIALIZATION_T015_P330" file="..\Source\platform\audio\resources\IRC_Composite_C_R0195_T015_P330.wav" type="BINDATA"/>
        <include name="IDR_AUDIO_SPATIALIZATION_T015_P345" file="..\Source\platform\audio\resources\IRC_Composite_C_R0195_T015_P345.wav" type="BINDATA"/>
        <include name="IDR_AUDIO_SPATIALIZATION_T030_P000" file="..\Source\platform\audio\resources\IRC_Composite_C_R0195_T030_P000.wav" type="BINDATA"/>
        <include name="IDR_AUDIO_SPATIALIZATION_T030_P015" file="..\Source\platform\audio\resources\IRC_Composite_C_R0195_T030_P015.wav" type="BINDATA"/>
        <include name="IDR_AUDIO_SPATIALIZATION_T030_P030" file="..\Source\platform\audio\resources\IRC_Composite_C_R0195_T030_P030.wav" type="BINDATA"/>
        <include name="IDR_AUDIO_SPATIALIZATION_T030_P045" file="..\Source\platform\audio\resources\IRC_Composite_C_R0195_T030_P045.wav" type="BINDATA"/>
        <include name="IDR_AUDIO_SPATIALIZATION_T030_P060" file="..\Source\platform\audio\resources\IRC_Composite_C_R0195_T030_P060.wav" type="BINDATA"/>
        <include name="IDR_AUDIO_SPATIALIZATION_T030_P075" file="..\Source\platform\audio\resources\IRC_Composite_C_R0195_T030_P075.wav" type="BINDATA"/>
        <include name="IDR_AUDIO_SPATIALIZATION_T030_P090" file="..\Source\platform\audio\resources\IRC_Composite_C_R0195_T030_P090.wav" type="BINDATA"/>
        <include name="IDR_AUDIO_SPATIALIZATION_T030_P315" file="..\Source\platform\audio\resources\IRC_Composite_C_R0195_T030_P315.wav" type="BINDATA"/>
        <include name="IDR_AUDIO_SPATIALIZATION_T030_P330" file="..\Source\platform\audio\resources\IRC_Composite_C_R0195_T030_P330.wav" type="BINDATA"/>
        <include name="IDR_AUDIO_SPATIALIZATION_T030_P345" file="..\Source\platform\audio\resources\IRC_Composite_C_R0195_T030_P345.wav" type="BINDATA"/>
        <include name="IDR_AUDIO_SPATIALIZATION_T045_P000" file="..\Source\platform\audio\resources\IRC_Composite_C_R0195_T045_P000.wav" type="BINDATA"/>
        <include name="IDR_AUDIO_SPATIALIZATION_T045_P015" file="..\Source\platform\audio\resources\IRC_Composite_C_R0195_T045_P015.wav" type="BINDATA"/>
        <include name="IDR_AUDIO_SPATIALIZATION_T045_P030" file="..\Source\platform\audio\resources\IRC_Composite_C_R0195_T045_P030.wav" type="BINDATA"/>
        <include name="IDR_AUDIO_SPATIALIZATION_T045_P045" file="..\Source\platform\audio\resources\IRC_Composite_C_R0195_T045_P045.wav" type="BINDATA"/>
        <include name="IDR_AUDIO_SPATIALIZATION_T045_P060" file="..\Source\platform\audio\resources\IRC_Composite_C_R0195_T045_P060.wav" type="BINDATA"/>
        <include name="IDR_AUDIO_SPATIALIZATION_T045_P075" file="..\Source\platform\audio\resources\IRC_Composite_C_R0195_T045_P075.wav" type="BINDATA"/>
        <include name="IDR_AUDIO_SPATIALIZATION_T045_P090" file="..\Source\platform\audio\resources\IRC_Composite_C_R0195_T045_P090.wav" type="BINDATA"/>
        <include name="IDR_AUDIO_SPATIALIZATION_T045_P315" file="..\Source\platform\audio\resources\IRC_Composite_C_R0195_T045_P315.wav" type="BINDATA"/>
        <include name="IDR_AUDIO_SPATIALIZATION_T045_P330" file="..\Source\platform\audio\resources\IRC_Composite_C_R0195_T045_P330.wav" type="BINDATA"/>
        <include name="IDR_AUDIO_SPATIALIZATION_T045_P345" file="..\Source\platform\audio\resources\IRC_Composite_C_R0195_T045_P345.wav" type="BINDATA"/>
        <include name="IDR_AUDIO_SPATIALIZATION_T060_P000" file="..\Source\platform\audio\resources\IRC_Composite_C_R0195_T060_P000.wav" type="BINDATA"/>
        <include name="IDR_AUDIO_SPATIALIZATION_T060_P015" file="..\Source\platform\audio\resources\IRC_Composite_C_R0195_T060_P015.wav" type="BINDATA"/>
        <include name="IDR_AUDIO_SPATIALIZATION_T060_P030" file="..\Source\platform\audio\resources\IRC_Composite_C_R0195_T060_P030.wav" type="BINDATA"/>
        <include name="IDR_AUDIO_SPATIALIZATION_T060_P045" file="..\Source\platform\audio\resources\IRC_Composite_C_R0195_T060_P045.wav" type="BINDATA"/>
        <include name="IDR_AUDIO_SPATIALIZATION_T060_P060" file="..\Source\platform\audio\resources\IRC_Composite_C_R0195_T060_P060.wav" type="BINDATA"/>
        <include name="IDR_AUDIO_SPATIALIZATION_T060_P075" file="..\Source\platform\audio\resources\IRC_Composite_C_R0195_T060_P075.wav" type="BINDATA"/>
        <include name="IDR_AUDIO_SPATIALIZATION_T060_P090" file="..\Source\platform\audio\resources\IRC_Composite_C_R0195_T060_P090.wav" type="BINDATA"/>
        <include name="IDR_AUDIO_SPATIALIZATION_T060_P315" file="..\Source\platform\audio\resources\IRC_Composite_C_R0195_T060_P315.wav" type="BINDATA"/>
        <include name="IDR_AUDIO_SPATIALIZATION_T060_P330" file="..\Source\platform\audio\resources\IRC_Composite_C_R0195_T060_P330.wav" type="BINDATA"/>
        <include name="IDR_AUDIO_SPATIALIZATION_T060_P345" file="..\Source\platform\audio\resources\IRC_Composite_C_R0195_T060_P345.wav" type="BINDATA"/>
        <include name="IDR_AUDIO_SPATIALIZATION_T075_P000" file="..\Source\platform\audio\resources\IRC_Composite_C_R0195_T075_P000.wav" type="BINDATA"/>
        <include name="IDR_AUDIO_SPATIALIZATION_T075_P015" file="..\Source\platform\audio\resources\IRC_Composite_C_R0195_T075_P015.wav" type="BINDATA"/>
        <include name="IDR_AUDIO_SPATIALIZATION_T075_P030" file="..\Source\platform\audio\resources\IRC_Composite_C_R0195_T075_P030.wav" type="BINDATA"/>
        <include name="IDR_AUDIO_SPATIALIZATION_T075_P045" file="..\Source\platform\audio\resources\IRC_Composite_C_R0195_T075_P045.wav" type="BINDATA"/>
        <include name="IDR_AUDIO_SPATIALIZATION_T075_P060" file="..\Source\platform\audio\resources\IRC_Composite_C_R0195_T075_P060.wav" type="BINDATA"/>
        <include name="IDR_AUDIO_SPATIALIZATION_T075_P075" file="..\Source\platform\audio\resources\IRC_Composite_C_R0195_T075_P075.wav" type="BINDATA"/>
        <include name="IDR_AUDIO_SPATIALIZATION_T075_P090" file="..\Source\platform\audio\resources\IRC_Composite_C_R0195_T075_P090.wav" type="BINDATA"/>
        <include name="IDR_AUDIO_SPATIALIZATION_T075_P315" file="..\Source\platform\audio\resources\IRC_Composite_C_R0195_T075_P315.wav" type="BINDATA"/>
        <include name="IDR_AUDIO_SPATIALIZATION_T075_P330" file="..\Source\platform\audio\resources\IRC_Composite_C_R0195_T075_P330.wav" type="BINDATA"/>
        <include name="IDR_AUDIO_SPATIALIZATION_T075_P345" file="..\Source\platform\audio\resources\IRC_Composite_C_R0195_T075_P345.wav" type="BINDATA"/>
        <include name="IDR_AUDIO_SPATIALIZATION_T090_P000" file="..\Source\platform\audio\resources\IRC_Composite_C_R0195_T090_P000.wav" type="BINDATA"/>
        <include name="IDR_AUDIO_SPATIALIZATION_T090_P015" file="..\Source\platform\audio\resources\IRC_Composite_C_R0195_T090_P015.wav" type="BINDATA"/>
        <include name="IDR_AUDIO_SPATIALIZATION_T090_P030" file="..\Source\platform\audio\resources\IRC_Composite_C_R0195_T090_P030.wav" type="BINDATA"/>
        <include name="IDR_AUDIO_SPATIALIZATION_T090_P045" file="..\Source\platform\audio\resources\IRC_Composite_C_R0195_T090_P045.wav" type="BINDATA"/>
        <include name="IDR_AUDIO_SPATIALIZATION_T090_P060" file="..\Source\platform\audio\resources\IRC_Composite_C_R0195_T090_P060.wav" type="BINDATA"/>
        <include name="IDR_AUDIO_SPATIALIZATION_T090_P075" file="..\Source\platform\audio\resources\IRC_Composite_C_R0195_T090_P075.wav" type="BINDATA"/>
        <include name="IDR_AUDIO_SPATIALIZATION_T090_P090" file="..\Source\platform\audio\resources\IRC_Composite_C_R0195_T090_P090.wav" type="BINDATA"/>
        <include name="IDR_AUDIO_SPATIALIZATION_T090_P315" file="..\Source\platform\audio\resources\IRC_Composite_C_R0195_T090_P315.wav" type="BINDATA"/>
        <include name="IDR_AUDIO_SPATIALIZATION_T090_P330" file="..\Source\platform\audio\resources\IRC_Composite_C_R0195_T090_P330.wav" type="BINDATA"/>
        <include name="IDR_AUDIO_SPATIALIZATION_T090_P345" file="..\Source\platform\audio\resources\IRC_Composite_C_R0195_T090_P345.wav" type="BINDATA"/>
        <include name="IDR_AUDIO_SPATIALIZATION_T105_P000" file="..\Source\platform\audio\resources\IRC_Composite_C_R0195_T105_P000.wav" type="BINDATA"/>
        <include name="IDR_AUDIO_SPATIALIZATION_T105_P015" file="..\Source\platform\audio\resources\IRC_Composite_C_R0195_T105_P015.wav" type="BINDATA"/>
        <include name="IDR_AUDIO_SPATIALIZATION_T105_P030" file="..\Source\platform\audio\resources\IRC_Composite_C_R0195_T105_P030.wav" type="BINDATA"/>
        <include name="IDR_AUDIO_SPATIALIZATION_T105_P045" file="..\Source\platform\audio\resources\IRC_Composite_C_R0195_T105_P045.wav" type="BINDATA"/>
        <include name="IDR_AUDIO_SPATIALIZATION_T105_P060" file="..\Source\platform\audio\resources\IRC_Composite_C_R0195_T105_P060.wav" type="BINDATA"/>
        <include name="IDR_AUDIO_SPATIALIZATION_T105_P075" file="..\Source\platform\audio\resources\IRC_Composite_C_R0195_T105_P075.wav" type="BINDATA"/>
        <include name="IDR_AUDIO_SPATIALIZATION_T105_P090" file="..\Source\platform\audio\resources\IRC_Composite_C_R0195_T105_P090.wav" type="BINDATA"/>
        <include name="IDR_AUDIO_SPATIALIZATION_T105_P315" file="..\Source\platform\audio\resources\IRC_Composite_C_R0195_T105_P315.wav" type="BINDATA"/>
        <include name="IDR_AUDIO_SPATIALIZATION_T105_P330" file="..\Source\platform\audio\resources\IRC_Composite_C_R0195_T105_P330.wav" type="BINDATA"/>
        <include name="IDR_AUDIO_SPATIALIZATION_T105_P345" file="..\Source\platform\audio\resources\IRC_Composite_C_R0195_T105_P345.wav" type="BINDATA"/>
        <include name="IDR_AUDIO_SPATIALIZATION_T120_P000" file="..\Source\platform\audio\resources\IRC_Composite_C_R0195_T120_P000.wav" type="BINDATA"/>
        <include name="IDR_AUDIO_SPATIALIZATION_T120_P015" file="..\Source\platform\audio\resources\IRC_Composite_C_R0195_T120_P015.wav" type="BINDATA"/>
        <include name="IDR_AUDIO_SPATIALIZATION_T120_P030" file="..\Source\platform\audio\resources\IRC_Composite_C_R0195_T120_P030.wav" type="BINDATA"/>
        <include name="IDR_AUDIO_SPATIALIZATION_T120_P045" file="..\Source\platform\audio\resources\IRC_Composite_C_R0195_T120_P045.wav" type="BINDATA"/>
        <include name="IDR_AUDIO_SPATIALIZATION_T120_P060" file="..\Source\platform\audio\resources\IRC_Composite_C_R0195_T120_P060.wav" type="BINDATA"/>
        <include name="IDR_AUDIO_SPATIALIZATION_T120_P075" file="..\Source\platform\audio\resources\IRC_Composite_C_R0195_T120_P075.wav" type="BINDATA"/>
        <include name="IDR_AUDIO_SPATIALIZATION_T120_P090" file="..\Source\platform\audio\resources\IRC_Composite_C_R0195_T120_P090.wav" type="BINDATA"/>
        <include name="IDR_AUDIO_SPATIALIZATION_T120_P315" file="..\Source\platform\audio\resources\IRC_Composite_C_R0195_T120_P315.wav" type="BINDATA"/>
        <include name="IDR_AUDIO_SPATIALIZATION_T120_P330" file="..\Source\platform\audio\resources\IRC_Composite_C_R0195_T120_P330.wav" type="BINDATA"/>
        <include name="IDR_AUDIO_SPATIALIZATION_T120_P345" file="..\Source\platform\audio\resources\IRC_Composite_C_R0195_T120_P345.wav" type="BINDATA"/>
        <include name="IDR_AUDIO_SPATIALIZATION_T135_P000" file="..\Source\platform\audio\resources\IRC_Composite_C_R0195_T135_P000.wav" type="BINDATA"/>
        <include name="IDR_AUDIO_SPATIALIZATION_T135_P015" file="..\Source\platform\audio\resources\IRC_Composite_C_R0195_T135_P015.wav" type="BINDATA"/>
        <include name="IDR_AUDIO_SPATIALIZATION_T135_P030" file="..\Source\platform\audio\resources\IRC_Composite_C_R0195_T135_P030.wav" type="BINDATA"/>
        <include name="IDR_AUDIO_SPATIALIZATION_T135_P045" file="..\Source\platform\audio\resources\IRC_Composite_C_R0195_T135_P045.wav" type="BINDATA"/>
        <include name="IDR_AUDIO_SPATIALIZATION_T135_P060" file="..\Source\platform\audio\resources\IRC_Composite_C_R0195_T135_P060.wav" type="BINDATA"/>
        <include name="IDR_AUDIO_SPATIALIZATION_T135_P075" file="..\Source\platform\audio\resources\IRC_Composite_C_R0195_T135_P075.wav" type="BINDATA"/>
        <include name="IDR_AUDIO_SPATIALIZATION_T135_P090" file="..\Source\platform\audio\resources\IRC_Composite_C_R0195_T135_P090.wav" type="BINDATA"/>
        <include name="IDR_AUDIO_SPATIALIZATION_T135_P315" file="..\Source\platform\audio\resources\IRC_Composite_C_R0195_T135_P315.wav" type="BINDATA"/>
        <include name="IDR_AUDIO_SPATIALIZATION_T135_P330" file="..\Source\platform\audio\resources\IRC_Composite_C_R0195_T135_P330.wav" type="BINDATA"/>
        <include name="IDR_AUDIO_SPATIALIZATION_T135_P345" file="..\Source\platform\audio\resources\IRC_Composite_C_R0195_T135_P345.wav" type="BINDATA"/>
        <include name="IDR_AUDIO_SPATIALIZATION_T150_P000" file="..\Source\platform\audio\resources\IRC_Composite_C_R0195_T150_P000.wav" type="BINDATA"/>
        <include name="IDR_AUDIO_SPATIALIZATION_T150_P015" file="..\Source\platform\audio\resources\IRC_Composite_C_R0195_T150_P015.wav" type="BINDATA"/>
        <include name="IDR_AUDIO_SPATIALIZATION_T150_P030" file="..\Source\platform\audio\resources\IRC_Composite_C_R0195_T150_P030.wav" type="BINDATA"/>
        <include name="IDR_AUDIO_SPATIALIZATION_T150_P045" file="..\Source\platform\audio\resources\IRC_Composite_C_R0195_T150_P045.wav" type="BINDATA"/>
        <include name="IDR_AUDIO_SPATIALIZATION_T150_P060" file="..\Source\platform\audio\resources\IRC_Composite_C_R0195_T150_P060.wav" type="BINDATA"/>
        <include name="IDR_AUDIO_SPATIALIZATION_T150_P075" file="..\Source\platform\audio\resources\IRC_Composite_C_R0195_T150_P075.wav" type="BINDATA"/>
        <include name="IDR_AUDIO_SPATIALIZATION_T150_P090" file="..\Source\platform\audio\resources\IRC_Composite_C_R0195_T150_P090.wav" type="BINDATA"/>
        <include name="IDR_AUDIO_SPATIALIZATION_T150_P315" file="..\Source\platform\audio\resources\IRC_Composite_C_R0195_T150_P315.wav" type="BINDATA"/>
        <include name="IDR_AUDIO_SPATIALIZATION_T150_P330" file="..\Source\platform\audio\resources\IRC_Composite_C_R0195_T150_P330.wav" type="BINDATA"/>
        <include name="IDR_AUDIO_SPATIALIZATION_T150_P345" file="..\Source\platform\audio\resources\IRC_Composite_C_R0195_T150_P345.wav" type="BINDATA"/>
        <include name="IDR_AUDIO_SPATIALIZATION_T165_P000" file="..\Source\platform\audio\resources\IRC_Composite_C_R0195_T165_P000.wav" type="BINDATA"/>
        <include name="IDR_AUDIO_SPATIALIZATION_T165_P015" file="..\Source\platform\audio\resources\IRC_Composite_C_R0195_T165_P015.wav" type="BINDATA"/>
        <include name="IDR_AUDIO_SPATIALIZATION_T165_P030" file="..\Source\platform\audio\resources\IRC_Composite_C_R0195_T165_P030.wav" type="BINDATA"/>
        <include name="IDR_AUDIO_SPATIALIZATION_T165_P045" file="..\Source\platform\audio\resources\IRC_Composite_C_R0195_T165_P045.wav" type="BINDATA"/>
        <include name="IDR_AUDIO_SPATIALIZATION_T165_P060" file="..\Source\platform\audio\resources\IRC_Composite_C_R0195_T165_P060.wav" type="BINDATA"/>
        <include name="IDR_AUDIO_SPATIALIZATION_T165_P075" file="..\Source\platform\audio\resources\IRC_Composite_C_R0195_T165_P075.wav" type="BINDATA"/>
        <include name="IDR_AUDIO_SPATIALIZATION_T165_P090" file="..\Source\platform\audio\resources\IRC_Composite_C_R0195_T165_P090.wav" type="BINDATA"/>
        <include name="IDR_AUDIO_SPATIALIZATION_T165_P315" file="..\Source\platform\audio\resources\IRC_Composite_C_R0195_T165_P315.wav" type="BINDATA"/>
        <include name="IDR_AUDIO_SPATIALIZATION_T165_P330" file="..\Source\platform\audio\resources\IRC_Composite_C_R0195_T165_P330.wav" type="BINDATA"/>
        <include name="IDR_AUDIO_SPATIALIZATION_T165_P345" file="..\Source\platform\audio\resources\IRC_Composite_C_R0195_T165_P345.wav" type="BINDATA"/>
        <include name="IDR_AUDIO_SPATIALIZATION_T180_P000" file="..\Source\platform\audio\resources\IRC_Composite_C_R0195_T180_P000.wav" type="BINDATA"/>
        <include name="IDR_AUDIO_SPATIALIZATION_T180_P015" file="..\Source\platform\audio\resources\IRC_Composite_C_R0195_T180_P015.wav" type="BINDATA"/>
        <include name="IDR_AUDIO_SPATIALIZATION_T180_P030" file="..\Source\platform\audio\resources\IRC_Composite_C_R0195_T180_P030.wav" type="BINDATA"/>
        <include name="IDR_AUDIO_SPATIALIZATION_T180_P045" file="..\Source\platform\audio\resources\IRC_Composite_C_R0195_T180_P045.wav" type="BINDATA"/>
        <include name="IDR_AUDIO_SPATIALIZATION_T180_P060" file="..\Source\platform\audio\resources\IRC_Composite_C_R0195_T180_P060.wav" type="BINDATA"/>
        <include name="IDR_AUDIO_SPATIALIZATION_T180_P075" file="..\Source\platform\audio\resources\IRC_Composite_C_R0195_T180_P075.wav" type="BINDATA"/>
        <include name="IDR_AUDIO_SPATIALIZATION_T180_P090" file="..\Source\platform\audio\resources\IRC_Composite_C_R0195_T180_P090.wav" type="BINDATA"/>
        <include name="IDR_AUDIO_SPATIALIZATION_T180_P315" file="..\Source\platform\audio\resources\IRC_Composite_C_R0195_T180_P315.wav" type="BINDATA"/>
        <include name="IDR_AUDIO_SPATIALIZATION_T180_P330" file="..\Source\platform\audio\resources\IRC_Composite_C_R0195_T180_P330.wav" type="BINDATA"/>
        <include name="IDR_AUDIO_SPATIALIZATION_T180_P345" file="..\Source\platform\audio\resources\IRC_Composite_C_R0195_T180_P345.wav" type="BINDATA"/>
        <include name="IDR_AUDIO_SPATIALIZATION_T195_P000" file="..\Source\platform\audio\resources\IRC_Composite_C_R0195_T195_P000.wav" type="BINDATA"/>
        <include name="IDR_AUDIO_SPATIALIZATION_T195_P015" file="..\Source\platform\audio\resources\IRC_Composite_C_R0195_T195_P015.wav" type="BINDATA"/>
        <include name="IDR_AUDIO_SPATIALIZATION_T195_P030" file="..\Source\platform\audio\resources\IRC_Composite_C_R0195_T195_P030.wav" type="BINDATA"/>
        <include name="IDR_AUDIO_SPATIALIZATION_T195_P045" file="..\Source\platform\audio\resources\IRC_Composite_C_R0195_T195_P045.wav" type="BINDATA"/>
        <include name="IDR_AUDIO_SPATIALIZATION_T195_P060" file="..\Source\platform\audio\resources\IRC_Composite_C_R0195_T195_P060.wav" type="BINDATA"/>
        <include name="IDR_AUDIO_SPATIALIZATION_T195_P075" file="..\Source\platform\audio\resources\IRC_Composite_C_R0195_T195_P075.wav" type="BINDATA"/>
        <include name="IDR_AUDIO_SPATIALIZATION_T195_P090" file="..\Source\platform\audio\resources\IRC_Composite_C_R0195_T195_P090.wav" type="BINDATA"/>
        <include name="IDR_AUDIO_SPATIALIZATION_T195_P315" file="..\Source\platform\audio\resources\IRC_Composite_C_R0195_T195_P315.wav" type="BINDATA"/>
        <include name="IDR_AUDIO_SPATIALIZATION_T195_P330" file="..\Source\platform\audio\resources\IRC_Composite_C_R0195_T195_P330.wav" type="BINDATA"/>
        <include name="IDR_AUDIO_SPATIALIZATION_T195_P345" file="..\Source\platform\audio\resources\IRC_Composite_C_R0195_T195_P345.wav" type="BINDATA"/>
        <include name="IDR_AUDIO_SPATIALIZATION_T210_P000" file="..\Source\platform\audio\resources\IRC_Composite_C_R0195_T210_P000.wav" type="BINDATA"/>
        <include name="IDR_AUDIO_SPATIALIZATION_T210_P015" file="..\Source\platform\audio\resources\IRC_Composite_C_R0195_T210_P015.wav" type="BINDATA"/>
        <include name="IDR_AUDIO_SPATIALIZATION_T210_P030" file="..\Source\platform\audio\resources\IRC_Composite_C_R0195_T210_P030.wav" type="BINDATA"/>
        <include name="IDR_AUDIO_SPATIALIZATION_T210_P045" file="..\Source\platform\audio\resources\IRC_Composite_C_R0195_T210_P045.wav" type="BINDATA"/>
        <include name="IDR_AUDIO_SPATIALIZATION_T210_P060" file="..\Source\platform\audio\resources\IRC_Composite_C_R0195_T210_P060.wav" type="BINDATA"/>
        <include name="IDR_AUDIO_SPATIALIZATION_T210_P075" file="..\Source\platform\audio\resources\IRC_Composite_C_R0195_T210_P075.wav" type="BINDATA"/>
        <include name="IDR_AUDIO_SPATIALIZATION_T210_P090" file="..\Source\platform\audio\resources\IRC_Composite_C_R0195_T210_P090.wav" type="BINDATA"/>
        <include name="IDR_AUDIO_SPATIALIZATION_T210_P315" file="..\Source\platform\audio\resources\IRC_Composite_C_R0195_T210_P315.wav" type="BINDATA"/>
        <include name="IDR_AUDIO_SPATIALIZATION_T210_P330" file="..\Source\platform\audio\resources\IRC_Composite_C_R0195_T210_P330.wav" type="BINDATA"/>
        <include name="IDR_AUDIO_SPATIALIZATION_T210_P345" file="..\Source\platform\audio\resources\IRC_Composite_C_R0195_T210_P345.wav" type="BINDATA"/>
        <include name="IDR_AUDIO_SPATIALIZATION_T225_P000" file="..\Source\platform\audio\resources\IRC_Composite_C_R0195_T225_P000.wav" type="BINDATA"/>
        <include name="IDR_AUDIO_SPATIALIZATION_T225_P015" file="..\Source\platform\audio\resources\IRC_Composite_C_R0195_T225_P015.wav" type="BINDATA"/>
        <include name="IDR_AUDIO_SPATIALIZATION_T225_P030" file="..\Source\platform\audio\resources\IRC_Composite_C_R0195_T225_P030.wav" type="BINDATA"/>
        <include name="IDR_AUDIO_SPATIALIZATION_T225_P045" file="..\Source\platform\audio\resources\IRC_Composite_C_R0195_T225_P045.wav" type="BINDATA"/>
        <include name="IDR_AUDIO_SPATIALIZATION_T225_P060" file="..\Source\platform\audio\resources\IRC_Composite_C_R0195_T225_P060.wav" type="BINDATA"/>
        <include name="IDR_AUDIO_SPATIALIZATION_T225_P075" file="..\Source\platform\audio\resources\IRC_Composite_C_R0195_T225_P075.wav" type="BINDATA"/>
        <include name="IDR_AUDIO_SPATIALIZATION_T225_P090" file="..\Source\platform\audio\resources\IRC_Composite_C_R0195_T225_P090.wav" type="BINDATA"/>
        <include name="IDR_AUDIO_SPATIALIZATION_T225_P315" file="..\Source\platform\audio\resources\IRC_Composite_C_R0195_T225_P315.wav" type="BINDATA"/>
        <include name="IDR_AUDIO_SPATIALIZATION_T225_P330" file="..\Source\platform\audio\resources\IRC_Composite_C_R0195_T225_P330.wav" type="BINDATA"/>
        <include name="IDR_AUDIO_SPATIALIZATION_T225_P345" file="..\Source\platform\audio\resources\IRC_Composite_C_R0195_T225_P345.wav" type="BINDATA"/>
        <include name="IDR_AUDIO_SPATIALIZATION_T240_P000" file="..\Source\platform\audio\resources\IRC_Composite_C_R0195_T240_P000.wav" type="BINDATA"/>
        <include name="IDR_AUDIO_SPATIALIZATION_T240_P015" file="..\Source\platform\audio\resources\IRC_Composite_C_R0195_T240_P015.wav" type="BINDATA"/>
        <include name="IDR_AUDIO_SPATIALIZATION_T240_P030" file="..\Source\platform\audio\resources\IRC_Composite_C_R0195_T240_P030.wav" type="BINDATA"/>
        <include name="IDR_AUDIO_SPATIALIZATION_T240_P045" file="..\Source\platform\audio\resources\IRC_Composite_C_R0195_T240_P045.wav" type="BINDATA"/>
        <include name="IDR_AUDIO_SPATIALIZATION_T240_P060" file="..\Source\platform\audio\resources\IRC_Composite_C_R0195_T240_P060.wav" type="BINDATA"/>
        <include name="IDR_AUDIO_SPATIALIZATION_T240_P075" file="..\Source\platform\audio\resources\IRC_Composite_C_R0195_T240_P075.wav" type="BINDATA"/>
        <include name="IDR_AUDIO_SPATIALIZATION_T240_P090" file="..\Source\platform\audio\resources\IRC_Composite_C_R0195_T240_P090.wav" type="BINDATA"/>
        <include name="IDR_AUDIO_SPATIALIZATION_T240_P315" file="..\Source\platform\audio\resources\IRC_Composite_C_R0195_T240_P315.wav" type="BINDATA"/>
        <include name="IDR_AUDIO_SPATIALIZATION_T240_P330" file="..\Source\platform\audio\resources\IRC_Composite_C_R0195_T240_P330.wav" type="BINDATA"/>
        <include name="IDR_AUDIO_SPATIALIZATION_T240_P345" file="..\Source\platform\audio\resources\IRC_Composite_C_R0195_T240_P345.wav" type="BINDATA"/>
        <include name="IDR_AUDIO_SPATIALIZATION_T255_P000" file="..\Source\platform\audio\resources\IRC_Composite_C_R0195_T255_P000.wav" type="BINDATA"/>
        <include name="IDR_AUDIO_SPATIALIZATION_T255_P015" file="..\Source\platform\audio\resources\IRC_Composite_C_R0195_T255_P015.wav" type="BINDATA"/>
        <include name="IDR_AUDIO_SPATIALIZATION_T255_P030" file="..\Source\platform\audio\resources\IRC_Composite_C_R0195_T255_P030.wav" type="BINDATA"/>
        <include name="IDR_AUDIO_SPATIALIZATION_T255_P045" file="..\Source\platform\audio\resources\IRC_Composite_C_R0195_T255_P045.wav" type="BINDATA"/>
        <include name="IDR_AUDIO_SPATIALIZATION_T255_P060" file="..\Source\platform\audio\resources\IRC_Composite_C_R0195_T255_P060.wav" type="BINDATA"/>
        <include name="IDR_AUDIO_SPATIALIZATION_T255_P075" file="..\Source\platform\audio\resources\IRC_Composite_C_R0195_T255_P075.wav" type="BINDATA"/>
        <include name="IDR_AUDIO_SPATIALIZATION_T255_P090" file="..\Source\platform\audio\resources\IRC_Composite_C_R0195_T255_P090.wav" type="BINDATA"/>
        <include name="IDR_AUDIO_SPATIALIZATION_T255_P315" file="..\Source\platform\audio\resources\IRC_Composite_C_R0195_T255_P315.wav" type="BINDATA"/>
        <include name="IDR_AUDIO_SPATIALIZATION_T255_P330" file="..\Source\platform\audio\resources\IRC_Composite_C_R0195_T255_P330.wav" type="BINDATA"/>
        <include name="IDR_AUDIO_SPATIALIZATION_T255_P345" file="..\Source\platform\audio\resources\IRC_Composite_C_R0195_T255_P345.wav" type="BINDATA"/>
        <include name="IDR_AUDIO_SPATIALIZATION_T270_P000" file="..\Source\platform\audio\resources\IRC_Composite_C_R0195_T270_P000.wav" type="BINDATA"/>
        <include name="IDR_AUDIO_SPATIALIZATION_T270_P015" file="..\Source\platform\audio\resources\IRC_Composite_C_R0195_T270_P015.wav" type="BINDATA"/>
        <include name="IDR_AUDIO_SPATIALIZATION_T270_P030" file="..\Source\platform\audio\resources\IRC_Composite_C_R0195_T270_P030.wav" type="BINDATA"/>
        <include name="IDR_AUDIO_SPATIALIZATION_T270_P045" file="..\Source\platform\audio\resources\IRC_Composite_C_R0195_T270_P045.wav" type="BINDATA"/>
        <include name="IDR_AUDIO_SPATIALIZATION_T270_P060" file="..\Source\platform\audio\resources\IRC_Composite_C_R0195_T270_P060.wav" type="BINDATA"/>
        <include name="IDR_AUDIO_SPATIALIZATION_T270_P075" file="..\Source\platform\audio\resources\IRC_Composite_C_R0195_T270_P075.wav" type="BINDATA"/>
        <include name="IDR_AUDIO_SPATIALIZATION_T270_P090" file="..\Source\platform\audio\resources\IRC_Composite_C_R0195_T270_P090.wav" type="BINDATA"/>
        <include name="IDR_AUDIO_SPATIALIZATION_T270_P315" file="..\Source\platform\audio\resources\IRC_Composite_C_R0195_T270_P315.wav" type="BINDATA"/>
        <include name="IDR_AUDIO_SPATIALIZATION_T270_P330" file="..\Source\platform\audio\resources\IRC_Composite_C_R0195_T270_P330.wav" type="BINDATA"/>
        <include name="IDR_AUDIO_SPATIALIZATION_T270_P345" file="..\Source\platform\audio\resources\IRC_Composite_C_R0195_T270_P345.wav" type="BINDATA"/>
        <include name="IDR_AUDIO_SPATIALIZATION_T285_P000" file="..\Source\platform\audio\resources\IRC_Composite_C_R0195_T285_P000.wav" type="BINDATA"/>
        <include name="IDR_AUDIO_SPATIALIZATION_T285_P015" file="..\Source\platform\audio\resources\IRC_Composite_C_R0195_T285_P015.wav" type="BINDATA"/>
        <include name="IDR_AUDIO_SPATIALIZATION_T285_P030" file="..\Source\platform\audio\resources\IRC_Composite_C_R0195_T285_P030.wav" type="BINDATA"/>
        <include name="IDR_AUDIO_SPATIALIZATION_T285_P045" file="..\Source\platform\audio\resources\IRC_Composite_C_R0195_T285_P045.wav" type="BINDATA"/>
        <include name="IDR_AUDIO_SPATIALIZATION_T285_P060" file="..\Source\platform\audio\resources\IRC_Composite_C_R0195_T285_P060.wav" type="BINDATA"/>
        <include name="IDR_AUDIO_SPATIALIZATION_T285_P075" file="..\Source\platform\audio\resources\IRC_Composite_C_R0195_T285_P075.wav" type="BINDATA"/>
        <include name="IDR_AUDIO_SPATIALIZATION_T285_P090" file="..\Source\platform\audio\resources\IRC_Composite_C_R0195_T285_P090.wav" type="BINDATA"/>
        <include name="IDR_AUDIO_SPATIALIZATION_T285_P315" file="..\Source\platform\audio\resources\IRC_Composite_C_R0195_T285_P315.wav" type="BINDATA"/>
        <include name="IDR_AUDIO_SPATIALIZATION_T285_P330" file="..\Source\platform\audio\resources\IRC_Composite_C_R0195_T285_P330.wav" type="BINDATA"/>
        <include name="IDR_AUDIO_SPATIALIZATION_T285_P345" file="..\Source\platform\audio\resources\IRC_Composite_C_R0195_T285_P345.wav" type="BINDATA"/>
        <include name="IDR_AUDIO_SPATIALIZATION_T300_P000" file="..\Source\platform\audio\resources\IRC_Composite_C_R0195_T300_P000.wav" type="BINDATA"/>
        <include name="IDR_AUDIO_SPATIALIZATION_T300_P015" file="..\Source\platform\audio\resources\IRC_Composite_C_R0195_T300_P015.wav" type="BINDATA"/>
        <include name="IDR_AUDIO_SPATIALIZATION_T300_P030" file="..\Source\platform\audio\resources\IRC_Composite_C_R0195_T300_P030.wav" type="BINDATA"/>
        <include name="IDR_AUDIO_SPATIALIZATION_T300_P045" file="..\Source\platform\audio\resources\IRC_Composite_C_R0195_T300_P045.wav" type="BINDATA"/>
        <include name="IDR_AUDIO_SPATIALIZATION_T300_P060" file="..\Source\platform\audio\resources\IRC_Composite_C_R0195_T300_P060.wav" type="BINDATA"/>
        <include name="IDR_AUDIO_SPATIALIZATION_T300_P075" file="..\Source\platform\audio\resources\IRC_Composite_C_R0195_T300_P075.wav" type="BINDATA"/>
        <include name="IDR_AUDIO_SPATIALIZATION_T300_P090" file="..\Source\platform\audio\resources\IRC_Composite_C_R0195_T300_P090.wav" type="BINDATA"/>
        <include name="IDR_AUDIO_SPATIALIZATION_T300_P315" file="..\Source\platform\audio\resources\IRC_Composite_C_R0195_T300_P315.wav" type="BINDATA"/>
        <include name="IDR_AUDIO_SPATIALIZATION_T300_P330" file="..\Source\platform\audio\resources\IRC_Composite_C_R0195_T300_P330.wav" type="BINDATA"/>
        <include name="IDR_AUDIO_SPATIALIZATION_T300_P345" file="..\Source\platform\audio\resources\IRC_Composite_C_R0195_T300_P345.wav" type="BINDATA"/>
        <include name="IDR_AUDIO_SPATIALIZATION_T315_P000" file="..\Source\platform\audio\resources\IRC_Composite_C_R0195_T315_P000.wav" type="BINDATA"/>
        <include name="IDR_AUDIO_SPATIALIZATION_T315_P015" file="..\Source\platform\audio\resources\IRC_Composite_C_R0195_T315_P015.wav" type="BINDATA"/>
        <include name="IDR_AUDIO_SPATIALIZATION_T315_P030" file="..\Source\platform\audio\resources\IRC_Composite_C_R0195_T315_P030.wav" type="BINDATA"/>
        <include name="IDR_AUDIO_SPATIALIZATION_T315_P045" file="..\Source\platform\audio\resources\IRC_Composite_C_R0195_T315_P045.wav" type="BINDATA"/>
        <include name="IDR_AUDIO_SPATIALIZATION_T315_P060" file="..\Source\platform\audio\resources\IRC_Composite_C_R0195_T315_P060.wav" type="BINDATA"/>
        <include name="IDR_AUDIO_SPATIALIZATION_T315_P075" file="..\Source\platform\audio\resources\IRC_Composite_C_R0195_T315_P075.wav" type="BINDATA"/>
        <include name="IDR_AUDIO_SPATIALIZATION_T315_P090" file="..\Source\platform\audio\resources\IRC_Composite_C_R0195_T315_P090.wav" type="BINDATA"/>
        <include name="IDR_AUDIO_SPATIALIZATION_T315_P315" file="..\Source\platform\audio\resources\IRC_Composite_C_R0195_T315_P315.wav" type="BINDATA"/>
        <include name="IDR_AUDIO_SPATIALIZATION_T315_P330" file="..\Source\platform\audio\resources\IRC_Composite_C_R0195_T315_P330.wav" type="BINDATA"/>
        <include name="IDR_AUDIO_SPATIALIZATION_T315_P345" file="..\Source\platform\audio\resources\IRC_Composite_C_R0195_T315_P345.wav" type="BINDATA"/>
        <include name="IDR_AUDIO_SPATIALIZATION_T330_P000" file="..\Source\platform\audio\resources\IRC_Composite_C_R0195_T330_P000.wav" type="BINDATA"/>
        <include name="IDR_AUDIO_SPATIALIZATION_T330_P015" file="..\Source\platform\audio\resources\IRC_Composite_C_R0195_T330_P015.wav" type="BINDATA"/>
        <include name="IDR_AUDIO_SPATIALIZATION_T330_P030" file="..\Source\platform\audio\resources\IRC_Composite_C_R0195_T330_P030.wav" type="BINDATA"/>
        <include name="IDR_AUDIO_SPATIALIZATION_T330_P045" file="..\Source\platform\audio\resources\IRC_Composite_C_R0195_T330_P045.wav" type="BINDATA"/>
        <include name="IDR_AUDIO_SPATIALIZATION_T330_P060" file="..\Source\platform\audio\resources\IRC_Composite_C_R0195_T330_P060.wav" type="BINDATA"/>
        <include name="IDR_AUDIO_SPATIALIZATION_T330_P075" file="..\Source\platform\audio\resources\IRC_Composite_C_R0195_T330_P075.wav" type="BINDATA"/>
        <include name="IDR_AUDIO_SPATIALIZATION_T330_P090" file="..\Source\platform\audio\resources\IRC_Composite_C_R0195_T330_P090.wav" type="BINDATA"/>
        <include name="IDR_AUDIO_SPATIALIZATION_T330_P315" file="..\Source\platform\audio\resources\IRC_Composite_C_R0195_T330_P315.wav" type="BINDATA"/>
        <include name="IDR_AUDIO_SPATIALIZATION_T330_P330" file="..\Source\platform\audio\resources\IRC_Composite_C_R0195_T330_P330.wav" type="BINDATA"/>
        <include name="IDR_AUDIO_SPATIALIZATION_T330_P345" file="..\Source\platform\audio\resources\IRC_Composite_C_R0195_T330_P345.wav" type="BINDATA"/>
        <include name="IDR_AUDIO_SPATIALIZATION_T345_P000" file="..\Source\platform\audio\resources\IRC_Composite_C_R0195_T345_P000.wav" type="BINDATA"/>
        <include name="IDR_AUDIO_SPATIALIZATION_T345_P015" file="..\Source\platform\audio\resources\IRC_Composite_C_R0195_T345_P015.wav" type="BINDATA"/>
        <include name="IDR_AUDIO_SPATIALIZATION_T345_P030" file="..\Source\platform\audio\resources\IRC_Composite_C_R0195_T345_P030.wav" type="BINDATA"/>
        <include name="IDR_AUDIO_SPATIALIZATION_T345_P045" file="..\Source\platform\audio\resources\IRC_Composite_C_R0195_T345_P045.wav" type="BINDATA"/>
        <include name="IDR_AUDIO_SPATIALIZATION_T345_P060" file="..\Source\platform\audio\resources\IRC_Composite_C_R0195_T345_P060.wav" type="BINDATA"/>
        <include name="IDR_AUDIO_SPATIALIZATION_T345_P075" file="..\Source\platform\audio\resources\IRC_Composite_C_R0195_T345_P075.wav" type="BINDATA"/>
        <include name="IDR_AUDIO_SPATIALIZATION_T345_P090" file="..\Source\platform\audio\resources\IRC_Composite_C_R0195_T345_P090.wav" type="BINDATA"/>
        <include name="IDR_AUDIO_SPATIALIZATION_T345_P315" file="..\Source\platform\audio\resources\IRC_Composite_C_R0195_T345_P315.wav" type="BINDATA"/>
        <include name="IDR_AUDIO_SPATIALIZATION_T345_P330" file="..\Source\platform\audio\resources\IRC_Composite_C_R0195_T345_P330.wav" type="BINDATA"/>
        <include name="IDR_AUDIO_SPATIALIZATION_T345_P345" file="..\Source\platform\audio\resources\IRC_Composite_C_R0195_T345_P345.wav" type="BINDATA"/>
      </if>
    </includes>
  </release>
</grit>
