{
  "bounds": [800, 600],
  "children": [
    {
      "bounds": [800, 600],
      "contentsOpaque": true,
      "drawsContent": true,
      "paintInvalidations": [
        {
          "object": "LayoutSVGInlineText #text",
          "rect": [80, 0, 551, 114],
          "reason": "style change"
        },
        {
          "object": "LayoutSVGRoot svg",
          "rect": [80, 0, 551, 114],
          "reason": "bounds change"
        },
        {
          "object": "LayoutSVGText text id='bounce'",
          "rect": [80, 0, 551, 114],
          "reason": "full"
        },
        {
          "object": "LayoutSVGInlineText #text",
          "rect": [30, 0, 404, 58],
          "reason": "style change"
        },
        {
          "object": "LayoutSVGRoot svg",
          "rect": [30, 0, 404, 58],
          "reason": "bounds change"
        },
        {
          "object": "LayoutSVGText text id='bounce'",
          "rect": [30, 0, 404, 58],
          "reason": "full"
        },
        {
          "object": "InlineTextBox 'Repaint me!'",
          "reason": "full"
        },
        {
          "object": "InlineTextBox 'Repaint me!'",
          "reason": "style change"
        },
        {
          "object": "RootInlineBox",
          "reason": "full"
        },
        {
          "object": "RootInlineBox",
          "reason": "full"
        }
      ]
    }
  ]
}

