{
  "bounds": [800, 600],
  "children": [
    {
      "bounds": [800, 600],
      "contentsOpaque": true,
      "drawsContent": true,
      "paintInvalidations": [
        {
          "object": "LayoutSVGContainer g id='content'",
          "rect": [0, 15, 680, 364],
          "reason": "bounds change"
        },
        {
          "object": "LayoutSVGRoot svg id='svg-root'",
          "rect": [0, 15, 680, 364],
          "reason": "bounds change"
        },
        {
          "object": "LayoutSVGInlineText #text",
          "rect": [0, 247, 680, 132],
          "reason": "layoutObject insertion"
        },
        {
          "object": "LayoutSVGText text",
          "rect": [0, 247, 680, 132],
          "reason": "layoutObject insertion"
        },
        {
          "object": "LayoutSVGInlineText #text",
          "rect": [0, 130, 519, 133],
          "reason": "layoutObject insertion"
        },
        {
          "object": "LayoutSVGText text",
          "rect": [0, 130, 519, 133],
          "reason": "layoutObject insertion"
        },
        {
          "object": "LayoutSVGInlineText #text",
          "rect": [0, 15, 370, 129],
          "reason": "layoutObject insertion"
        },
        {
          "object": "LayoutSVGText text",
          "rect": [0, 15, 370, 129],
          "reason": "layoutObject insertion"
        },
        {
          "object": "LayoutSVGRect rect",
          "rect": [16, 16, 18, 18],
          "reason": "layoutObject insertion"
        },
        {
          "object": "LayoutSVGRect rect",
          "rect": [16, 16, 18, 18],
          "reason": "layoutObject insertion"
        },
        {
          "object": "LayoutSVGRect rect",
          "rect": [8, 8, 17, 17],
          "reason": "layoutObject insertion"
        },
        {
          "object": "LayoutSVGRect rect",
          "rect": [8, 8, 17, 17],
          "reason": "layoutObject insertion"
        },
        {
          "object": "InlineTextBox 'Pattern on fill'",
          "reason": "layoutObject insertion"
        },
        {
          "object": "InlineTextBox 'Pattern on fill/stroke'",
          "reason": "layoutObject insertion"
        },
        {
          "object": "InlineTextBox 'Pattern on stroke'",
          "reason": "layoutObject insertion"
        },
        {
          "object": "LayoutSVGResourcePattern pattern id='fillPattern'",
          "reason": "layoutObject insertion"
        },
        {
          "object": "LayoutSVGResourcePattern pattern id='strokePattern'",
          "reason": "layoutObject insertion"
        },
        {
          "object": "RootInlineBox",
          "reason": "full"
        },
        {
          "object": "RootInlineBox",
          "reason": "full"
        },
        {
          "object": "RootInlineBox",
          "reason": "full"
        }
      ]
    }
  ]
}

