{
  "bounds": [800, 600],
  "children": [
    {
      "bounds": [800, 600],
      "contentsOpaque": true,
      "drawsContent": true,
      "paintInvalidations": [
        {
          "object": "LayoutTableCol COL id='col'",
          "rect": [8, 8, 110, 104],
          "reason": "style change"
        },
        {
          "object": "LayoutTable TABLE",
          "rect": [8, 108, 110, 4],
          "reason": "incremental"
        },
        {
          "object": "LayoutTable TABLE",
          "rect": [8, 110, 110, 2],
          "reason": "incremental"
        },
        {
          "object": "LayoutTableSection TBODY",
          "rect": [10, 10, 107, 100],
          "reason": "bounds change"
        },
        {
          "object": "LayoutTableSection TBODY",
          "rect": [9, 9, 107, 100],
          "reason": "bounds change"
        },
        {
          "object": "LayoutTableRow TR",
          "rect": [10, 60, 107, 50],
          "reason": "bounds change"
        },
        {
          "object": "LayoutTableRow TR",
          "rect": [10, 10, 107, 50],
          "reason": "bounds change"
        },
        {
          "object": "LayoutTableRow TR",
          "rect": [9, 59, 107, 50],
          "reason": "bounds change"
        },
        {
          "object": "LayoutTableRow TR",
          "rect": [9, 9, 107, 50],
          "reason": "bounds change"
        },
        {
          "object": "LayoutTableCell TD",
          "rect": [8, 59, 58, 53],
          "reason": "bounds change"
        },
        {
          "object": "LayoutTableCell TD",
          "rect": [8, 8, 58, 53],
          "reason": "location change"
        },
        {
          "object": "LayoutTableCell TD",
          "rect": [62, 59, 56, 53],
          "reason": "bounds change"
        },
        {
          "object": "LayoutTableCell TD",
          "rect": [62, 8, 56, 53],
          "reason": "location change"
        },
        {
          "object": "LayoutTableCell TD",
          "rect": [8, 58, 56, 52],
          "reason": "bounds change"
        },
        {
          "object": "LayoutTable TABLE",
          "rect": [116, 8, 2, 104],
          "reason": "incremental"
        },
        {
          "object": "LayoutTable TABLE",
          "rect": [117, 8, 1, 104],
          "reason": "incremental"
        },
        {
          "object": "LayoutTableCell TD",
          "reason": "full"
        },
        {
          "object": "LayoutTableCell TD",
          "reason": "full"
        },
        {
          "object": "LayoutTableCell TD",
          "reason": "full"
        },
        {
          "object": "LayoutTableCell TD",
          "reason": "full"
        },
        {
          "object": "LayoutTableCell TD",
          "reason": "full"
        },
        {
          "object": "LayoutTableCell TD",
          "reason": "full"
        }
      ]
    }
  ]
}

