{
  "bounds": [800, 600],
  "children": [
    {
      "bounds": [800, 600],
      "contentsOpaque": true,
      "drawsContent": true,
      "children": [
        {
          "position": [8, 108],
          "bounds": [200, 200],
          "shouldFlattenTransform": false,
          "drawsContent": true,
          "paintInvalidations": [
            {
              "object": "LayoutText #text",
              "rect": [0, 167, 75, 18],
              "reason": "style change"
            },
            {
              "object": "LayoutText #text",
              "rect": [0, 149, 75, 18],
              "reason": "style change"
            },
            {
              "object": "LayoutText #text",
              "rect": [0, 131, 75, 18],
              "reason": "style change"
            },
            {
              "object": "LayoutText #text",
              "rect": [0, 113, 75, 18],
              "reason": "style change"
            },
            {
              "object": "LayoutText #text",
              "rect": [0, 95, 75, 18],
              "reason": "style change"
            },
            {
              "object": "LayoutText #text",
              "rect": [0, 77, 75, 18],
              "reason": "style change"
            },
            {
              "object": "LayoutText #text",
              "rect": [0, 59, 75, 18],
              "reason": "style change"
            },
            {
              "object": "LayoutText #text",
              "rect": [0, 41, 75, 18],
              "reason": "style change"
            },
            {
              "object": "LayoutText #text",
              "rect": [0, 23, 75, 18],
              "reason": "style change"
            },
            {
              "object": "LayoutText #text",
              "rect": [0, 5, 75, 18],
              "reason": "style change"
            },
            {
              "object": "LayoutText #text",
              "rect": [0, -13, 75, 18],
              "reason": "style change"
            },
            {
              "object": "LayoutText #text",
              "rect": [0, -31, 75, 18],
              "reason": "style change"
            },
            {
              "object": "LayoutText #text",
              "rect": [0, -49, 75, 18],
              "reason": "style change"
            },
            {
              "object": "InlineTextBox 'CONTENT'",
              "reason": "style change"
            },
            {
              "object": "InlineTextBox 'CONTENT'",
              "reason": "style change"
            },
            {
              "object": "InlineTextBox 'CONTENT'",
              "reason": "style change"
            },
            {
              "object": "InlineTextBox 'CONTENT'",
              "reason": "style change"
            },
            {
              "object": "InlineTextBox 'CONTENT'",
              "reason": "style change"
            },
            {
              "object": "InlineTextBox 'CONTENT'",
              "reason": "style change"
            },
            {
              "object": "InlineTextBox 'CONTENT'",
              "reason": "style change"
            },
            {
              "object": "InlineTextBox 'CONTENT'",
              "reason": "style change"
            },
            {
              "object": "InlineTextBox 'CONTENT'",
              "reason": "style change"
            },
            {
              "object": "InlineTextBox 'CONTENT'",
              "reason": "style change"
            },
            {
              "object": "InlineTextBox 'CONTENT'",
              "reason": "style change"
            },
            {
              "object": "InlineTextBox 'CONTENT'",
              "reason": "style change"
            },
            {
              "object": "InlineTextBox 'CONTENT'",
              "reason": "style change"
            }
          ],
          "children": [
            {
              "bounds": [185, 185],
              "shouldFlattenTransform": false,
              "children": [
                {
                  "bounds": [185, 234],
                  "drawsContent": true,
                  "paintInvalidations": [
                    {
                      "object": "LayoutText #text",
                      "rect": [0, 216, 75, 18],
                      "reason": "style change"
                    },
                    {
                      "object": "LayoutText #text",
                      "rect": [0, 198, 75, 18],
                      "reason": "style change"
                    },
                    {
                      "object": "LayoutText #text",
                      "rect": [0, 180, 75, 18],
                      "reason": "style change"
                    },
                    {
                      "object": "LayoutText #text",
                      "rect": [0, 162, 75, 18],
                      "reason": "style change"
                    },
                    {
                      "object": "LayoutText #text",
                      "rect": [0, 144, 75, 18],
                      "reason": "style change"
                    },
                    {
                      "object": "LayoutText #text",
                      "rect": [0, 126, 75, 18],
                      "reason": "style change"
                    },
                    {
                      "object": "LayoutText #text",
                      "rect": [0, 108, 75, 18],
                      "reason": "style change"
                    },
                    {
                      "object": "LayoutText #text",
                      "rect": [0, 90, 75, 18],
                      "reason": "style change"
                    },
                    {
                      "object": "LayoutText #text",
                      "rect": [0, 72, 75, 18],
                      "reason": "style change"
                    },
                    {
                      "object": "LayoutText #text",
                      "rect": [0, 54, 75, 18],
                      "reason": "style change"
                    },
                    {
                      "object": "LayoutText #text",
                      "rect": [0, 36, 75, 18],
                      "reason": "style change"
                    },
                    {
                      "object": "LayoutText #text",
                      "rect": [0, 18, 75, 18],
                      "reason": "style change"
                    },
                    {
                      "object": "LayoutText #text",
                      "rect": [0, 0, 75, 18],
                      "reason": "style change"
                    },
                    {
                      "object": "InlineTextBox 'CONTENT'",
                      "reason": "style change"
                    },
                    {
                      "object": "InlineTextBox 'CONTENT'",
                      "reason": "style change"
                    },
                    {
                      "object": "InlineTextBox 'CONTENT'",
                      "reason": "style change"
                    },
                    {
                      "object": "InlineTextBox 'CONTENT'",
                      "reason": "style change"
                    },
                    {
                      "object": "InlineTextBox 'CONTENT'",
                      "reason": "style change"
                    },
                    {
                      "object": "InlineTextBox 'CONTENT'",
                      "reason": "style change"
                    },
                    {
                      "object": "InlineTextBox 'CONTENT'",
                      "reason": "style change"
                    },
                    {
                      "object": "InlineTextBox 'CONTENT'",
                      "reason": "style change"
                    },
                    {
                      "object": "InlineTextBox 'CONTENT'",
                      "reason": "style change"
                    },
                    {
                      "object": "InlineTextBox 'CONTENT'",
                      "reason": "style change"
                    },
                    {
                      "object": "InlineTextBox 'CONTENT'",
                      "reason": "style change"
                    },
                    {
                      "object": "InlineTextBox 'CONTENT'",
                      "reason": "style change"
                    },
                    {
                      "object": "InlineTextBox 'CONTENT'",
                      "reason": "style change"
                    }
                  ]
                }
              ]
            },
            {
              "bounds": [200, 200],
              "children": [
                {
                  "position": [0, 185],
                  "bounds": [185, 15]
                },
                {
                  "position": [185, 0],
                  "bounds": [15, 185]
                },
                {
                  "position": [185, 185],
                  "bounds": [15, 15],
                  "drawsContent": true
                }
              ]
            }
          ]
        }
      ]
    }
  ]
}

