{
  "bounds": [800, 600],
  "children": [
    {
      "bounds": [800, 600],
      "contentsOpaque": true,
      "drawsContent": true,
      "paintInvalidations": [
        {
          "object": "LayoutBlockFlow (positioned) DIV id='target2' class='border-box'",
          "rect": [0, 200, 100, 100],
          "reason": "content box change"
        }
      ]
    }
  ]
}

