{
  "bounds": [800, 600],
  "children": [
    {
      "bounds": [800, 600],
      "contentsOpaque": true,
      "drawsContent": true,
      "paintInvalidations": [
        {
          "object": "LayoutBlockFlow DIV id='content'",
          "rect": [8, 120, 100, 300],
          "reason": "style change"
        }
      ]
    }
  ]
}

