{
  "bounds": [800, 600],
  "children": [
    {
      "bounds": [800, 600],
      "contentsOpaque": true,
      "drawsContent": true,
      "paintInvalidations": [
        {
          "object": "LayoutBlockFlow (positioned) DIV",
          "rect": [8, 211, 106, 53],
          "reason": "incremental"
        },
        {
          "object": "LayoutBlockFlow (positioned) DIV",
          "rect": [8, 214, 106, 50],
          "reason": "incremental"
        },
        {
          "object": "LayoutBlockFlow DIV",
          "rect": [8, 308, 100, 100],
          "reason": "became visible"
        },
        {
          "object": "LayoutBlockFlow DIV id='target3'",
          "rect": [8, 388, 100, 20],
          "reason": "layoutObject insertion"
        },
        {
          "object": "LayoutBlockFlow (positioned) DIV",
          "rect": [61, 8, 53, 106],
          "reason": "incremental"
        },
        {
          "object": "LayoutBlockFlow (positioned) DIV",
          "rect": [64, 8, 50, 106],
          "reason": "incremental"
        },
        {
          "object": "LayoutBlockFlow DIV id='target1' class='narrow'",
          "rect": [61, 11, 50, 50],
          "reason": "incremental"
        },
        {
          "object": "LayoutBlockFlow DIV id='target2' class='short'",
          "rect": [11, 211, 50, 50],
          "reason": "incremental"
        }
      ]
    }
  ]
}

