{
  "bounds": [800, 600],
  "children": [
    {
      "bounds": [800, 600],
      "contentsOpaque": true,
      "drawsContent": true,
      "paintInvalidations": [
        {
          "object": "LayoutBlockFlow (positioned) DIV",
          "rect": [158, 70, 50, 50],
          "reason": "bounds change"
        },
        {
          "object": "LayoutBlockFlow (positioned) DIV",
          "rect": [100, 70, 50, 50],
          "reason": "subtree"
        },
        {
          "object": "LayoutBlockFlow (relative positioned) DIV id='t'",
          "reason": "style change"
        }
      ]
    }
  ]
}

