{
  "bounds": [808, 585],
  "children": [
    {
      "bounds": [808, 585],
      "contentsOpaque": true,
      "drawsContent": true,
      "paintInvalidations": [
        {
          "object": "LayoutTableCell TD",
          "rect": [10, 73, 102, 99],
          "reason": "incremental"
        },
        {
          "object": "LayoutTableCell TD",
          "rect": [12, 70, 100, 102],
          "reason": "incremental"
        },
        {
          "object": "LayoutBlockFlow (floating) DIV id='target'",
          "rect": [11, 71, 100, 100],
          "reason": "style change"
        },
        {
          "object": "LayoutTableCell TD",
          "rect": [114, 70, 2, 102],
          "reason": "bounds change"
        },
        {
          "object": "LayoutTableCell TD",
          "rect": [14, 70, 2, 3],
          "reason": "bounds change"
        },
        {
          "object": "LayoutBlockFlow DIV",
          "reason": "bounds change"
        },
        {
          "object": "LayoutBlockFlow DIV",
          "reason": "bounds change"
        },
        {
          "object": "LayoutBlockFlow DIV",
          "reason": "bounds change"
        }
      ]
    }
  ]
}

