{
  "bounds": [785, 2016],
  "children": [
    {
      "bounds": [785, 2016],
      "contentsOpaque": true,
      "drawsContent": true,
      "paintInvalidations": [
        {
          "object": "LayoutBlockFlow (positioned) DIV id='t'",
          "rect": [8, 80, 100, 100],
          "reason": "style change"
        }
      ]
    }
  ]
}

