{
  "bounds": [800, 600],
  "children": [
    {
      "bounds": [800, 600],
      "contentsOpaque": true,
      "drawsContent": true,
      "paintInvalidations": [
        {
          "object": "LayoutText #text",
          "rect": [33, 33, 100, 250],
          "reason": "style change"
        },
        {
          "object": "InlineTextBox 'A\u00A0\u00A0B'",
          "reason": "style change"
        }
      ]
    }
  ]
}

