{
  "bounds": [800, 600],
  "children": [
    {
      "bounds": [800, 600],
      "contentsOpaque": true,
      "drawsContent": true,
      "paintInvalidations": [
        {
          "object": "LayoutBlockFlow DIV class='item1'",
          "rect": [0, 52, 150, 300],
          "reason": "style change"
        },
        {
          "object": "LayoutBlockFlow DIV class='item1'",
          "rect": [-50, 52, 150, 300],
          "reason": "style change"
        },
        {
          "object": "LayoutBlockFlow DIV",
          "rect": [0, 52, 150, 150],
          "reason": "bounds change"
        },
        {
          "object": "LayoutBlockFlow DIV",
          "rect": [-50, 52, 150, 150],
          "reason": "bounds change"
        },
        {
          "object": "LayoutBlockFlow DIV class='item2'",
          "rect": [150, 52, 50, 300],
          "reason": "style change"
        }
      ]
    }
  ]
}

