{
  "bounds": [800, 600],
  "children": [
    {
      "bounds": [800, 600],
      "contentsOpaque": true,
      "drawsContent": true,
      "paintInvalidations": [
        {
          "object": "LayoutBlockFlow DIV id='spacer'",
          "rect": [8, 8, 784, 60],
          "reason": "layoutObject insertion"
        },
        {
          "object": "LayoutBlockFlow DIV class='test'",
          "rect": [8, 68, 784, 20],
          "reason": "bounds change"
        },
        {
          "object": "LayoutBlockFlow DIV class='test'",
          "rect": [8, 8, 784, 20],
          "reason": "bounds change"
        },
        {
          "object": "LayoutText #text",
          "rect": [8, 68, 140, 20],
          "reason": "bounds change"
        },
        {
          "object": "LayoutText #text",
          "rect": [8, 8, 140, 20],
          "reason": "bounds change"
        },
        {
          "object": "InlineTextBox 'JOCULAR'",
          "reason": "bounds change"
        },
        {
          "object": "RootInlineBox",
          "reason": "full"
        }
      ]
    }
  ]
}

