{
  "bounds": [800, 600],
  "children": [
    {
      "bounds": [800, 600],
      "contentsOpaque": true,
      "drawsContent": true,
      "paintInvalidations": [
        {
          "object": "LayoutBlockFlow (relative positioned) DIV",
          "rect": [428, 38, 300, 18],
          "reason": "bounds change"
        },
        {
          "object": "LayoutBlockFlow (positioned) DIV id='container'",
          "rect": [408, 18, 300, 18],
          "reason": "bounds change"
        },
        {
          "object": "LayoutBlockFlow (relative positioned) DIV",
          "rect": [28, 38, 300, 18],
          "reason": "bounds change"
        },
        {
          "object": "LayoutBlockFlow (positioned) DIV id='container'",
          "rect": [8, 18, 300, 18],
          "reason": "bounds change"
        },
        {
          "object": "LayoutText #text",
          "rect": [428, 38, 275, 18],
          "reason": "bounds change"
        },
        {
          "object": "LayoutText #text",
          "rect": [28, 38, 275, 18],
          "reason": "bounds change"
        },
        {
          "object": "InlineTextBox 'There should only be one copy of this text.'",
          "reason": "bounds change"
        },
        {
          "object": "LayoutText #text",
          "reason": "bounds change"
        },
        {
          "object": "RootInlineBox",
          "reason": "full"
        },
        {
          "object": "RootInlineBox",
          "reason": "full"
        }
      ]
    }
  ]
}

