{
  "bounds": [800, 600],
  "children": [
    {
      "bounds": [800, 600],
      "contentsOpaque": true,
      "drawsContent": true,
      "paintInvalidations": [
        {
          "object": "LayoutBlockFlow (positioned) DIV id='box'",
          "rect": [260, 260, 100, 100],
          "reason": "style change"
        }
      ]
    }
  ]
}

