{
  "bounds": [800, 600],
  "children": [
    {
      "bounds": [800, 600],
      "contentsOpaque": true,
      "drawsContent": true,
      "paintInvalidations": [
        {
          "object": "LayoutBlockFlow DIV id='s'",
          "rect": [8, 200, 108, 56],
          "reason": "incremental"
        },
        {
          "object": "LayoutBlockFlow DIV id='s'",
          "rect": [8, 204, 108, 52],
          "reason": "incremental"
        },
        {
          "object": "LayoutBlockFlow DIV id='t'",
          "rect": [132, 200, 10, 52],
          "reason": "incremental"
        }
      ]
    }
  ]
}

