{
  "bounds": [800, 600],
  "children": [
    {
      "bounds": [800, 600],
      "contentsOpaque": true,
      "drawsContent": true,
      "paintInvalidations": [
        {
          "object": "LayoutBlockFlow (positioned) DIV id='scrollable'",
          "rect": [8, 50, 320, 120],
          "reason": "border box change"
        },
        {
          "object": "LayoutBlockFlow (positioned) DIV id='scrollable'",
          "rect": [18, 145, 285, 15],
          "reason": "scroll"
        },
        {
          "object": "LayoutBlockFlow (positioned) DIV id='scrollable'",
          "rect": [18, 145, 85, 15],
          "reason": "scroll"
        },
        {
          "object": "LayoutBlockFlow (positioned) DIV id='scrollable'",
          "rect": [303, 60, 15, 85],
          "reason": "scroll"
        },
        {
          "object": "LayoutBlockFlow (positioned) DIV id='scrollable'",
          "rect": [103, 60, 15, 85],
          "reason": "scroll"
        },
        {
          "object": "LayoutBlockFlow (positioned) DIV id='scrollable'",
          "rect": [303, 145, 15, 15],
          "reason": "scroll"
        },
        {
          "object": "LayoutBlockFlow (positioned) DIV id='scrollable'",
          "rect": [103, 145, 15, 15],
          "reason": "scroll"
        },
        {
          "object": "HorizontalScrollbar",
          "reason": "scroll"
        },
        {
          "object": "VerticalScrollbar",
          "reason": "scroll"
        }
      ]
    }
  ]
}

