{
  "bounds": [800, 2016],
  "children": [
    {
      "bounds": [800, 2016],
      "contentsOpaque": true,
      "drawsContent": true,
      "paintInvalidations": [
        {
          "object": "LayoutBlockFlow (positioned) DIV class='absolute green'",
          "rect": [79, 129, 142, 142],
          "reason": "subtree"
        },
        {
          "object": "LayoutBlockFlow (positioned) DIV id='moveMe' class='absolute clipped rotated'",
          "rect": [79, 129, 142, 142],
          "reason": "subtree"
        },
        {
          "object": "LayoutBlockFlow (positioned) DIV class='absolute red'",
          "rect": [100, 150, 100, 100],
          "reason": "subtree"
        }
      ]
    }
  ]
}

