{
  "bounds": [800, 600],
  "children": [
    {
      "bounds": [800, 600],
      "contentsOpaque": true,
      "drawsContent": true,
      "paintInvalidations": [
        {
          "object": "LayoutTextControl (positioned) TEXTAREA id='textarea'",
          "rect": [0, 50, 106, 206],
          "reason": "border box change"
        },
        {
          "object": "LayoutTextControl (positioned) TEXTAREA id='textarea'",
          "rect": [90, 240, 15, 15],
          "reason": "scroll"
        },
        {
          "object": "LayoutTextControl (positioned) TEXTAREA id='textarea'",
          "rect": [90, 140, 15, 15],
          "reason": "scroll"
        }
      ]
    }
  ]
}

