{
  "bounds": [800, 600],
  "children": [
    {
      "bounds": [800, 600],
      "contentsOpaque": true,
      "drawsContent": true,
      "paintInvalidations": [
        {
          "object": "LayoutBlockFlow (positioned) DIV",
          "rect": [176, 218, 394, 185],
          "reason": "subtree"
        },
        {
          "object": "LayoutBlockFlow (positioned) DIV",
          "rect": [176, 218, 388, 203],
          "reason": "subtree"
        },
        {
          "object": "LayoutBlockFlow (relative positioned) DIV id='box'",
          "rect": [76, 118, 266, 266],
          "reason": "subtree"
        }
      ]
    }
  ]
}

