{
  "bounds": [800, 600],
  "children": [
    {
      "bounds": [800, 600],
      "contentsOpaque": true,
      "drawsContent": true,
      "paintInvalidations": [
        {
          "object": "LayoutBlockFlow P",
          "rect": [8, 340, 418, 259],
          "reason": "invalidate paint rectangle"
        },
        {
          "object": "LayoutBlockFlow (floating) SPAN id='blueFloat'",
          "rect": [14, 363, 48, 65],
          "reason": "bounds change"
        },
        {
          "object": "LayoutBlockFlow (floating) SPAN id='blueFloat'",
          "rect": [14, 374, 48, 64],
          "reason": "bounds change"
        },
        {
          "object": "LayoutText #text",
          "rect": [369, 440, 1, 59],
          "reason": "incremental"
        },
        {
          "object": "InlineTextBox 'Alice began to feel very uneasy: to be sure, she had not as\n'",
          "reason": "full"
        },
        {
          "object": "InlineTextBox 'The players all played at once without waiting\n'",
          "reason": "full"
        },
        {
          "object": "InlineTextBox 'They\u2019re dreadfully fond of beheading people here; the great'",
          "reason": "full"
        },
        {
          "object": "InlineTextBox 'a very short time '",
          "reason": "full"
        },
        {
          "object": "InlineTextBox 'about, and shouting \u2018Off with his head!\u2019 or \u2018Off with\n'",
          "reason": "incremental"
        },
        {
          "object": "InlineTextBox 'any dispute with the Queen, but she knew that it might\n'",
          "reason": "full"
        },
        {
          "object": "InlineTextBox 'difficult game indeed.\n'",
          "reason": "full"
        },
        {
          "object": "InlineTextBox 'for'",
          "reason": "full"
        },
        {
          "object": "InlineTextBox 'happen any'",
          "reason": "full"
        },
        {
          "object": "InlineTextBox 'head!\u2019 about once in a minute.\n'",
          "reason": "incremental"
        },
        {
          "object": "InlineTextBox 'hedgehogs; and in\n'",
          "reason": "full"
        },
        {
          "object": "InlineTextBox 'her head!\u2019 about'",
          "reason": "full"
        },
        {
          "object": "InlineTextBox 'her'",
          "reason": "incremental"
        },
        {
          "object": "InlineTextBox 'me?'",
          "reason": "full"
        },
        {
          "object": "InlineTextBox 'minute, \u2018and then,\u2019 thought she, \u2018what would become of\n'",
          "reason": "full"
        },
        {
          "object": "InlineTextBox 'once in a minute.\n'",
          "reason": "full"
        },
        {
          "object": "InlineTextBox 'other parts of\n'",
          "reason": "full"
        },
        {
          "object": "InlineTextBox 'quarrelling all the while, and fighting for the'",
          "reason": "full"
        },
        {
          "object": "InlineTextBox 'shouting \u2018Off with his head!\u2019 or \u2018Off with\n'",
          "reason": "full"
        },
        {
          "object": "InlineTextBox 'stamping about, and'",
          "reason": "full"
        },
        {
          "object": "InlineTextBox 'stamping'",
          "reason": "incremental"
        },
        {
          "object": "InlineTextBox 'the Queen'",
          "reason": "full"
        },
        {
          "object": "InlineTextBox 'the ground, Alice soon came to the conclusion that it'",
          "reason": "full"
        },
        {
          "object": "InlineTextBox 'turns,\n'",
          "reason": "full"
        },
        {
          "object": "InlineTextBox 'was a very\n'",
          "reason": "full"
        },
        {
          "object": "InlineTextBox 'was in a furious passion, and went\n'",
          "reason": "incremental"
        },
        {
          "object": "InlineTextBox 'was in a furious passion, and went\n'",
          "reason": "full"
        },
        {
          "object": "InlineTextBox 'wonder is, that there\u2018s any one left alive!\u2019'",
          "reason": "full"
        },
        {
          "object": "InlineTextBox 'yet had'",
          "reason": "full"
        },
        {
          "object": "RootInlineBox",
          "reason": "full"
        },
        {
          "object": "RootInlineBox",
          "reason": "full"
        },
        {
          "object": "RootInlineBox",
          "reason": "full"
        },
        {
          "object": "RootInlineBox",
          "reason": "full"
        },
        {
          "object": "RootInlineBox",
          "reason": "full"
        },
        {
          "object": "RootInlineBox",
          "reason": "full"
        },
        {
          "object": "RootInlineBox",
          "reason": "full"
        },
        {
          "object": "RootInlineBox",
          "reason": "full"
        },
        {
          "object": "RootInlineBox",
          "reason": "full"
        },
        {
          "object": "RootInlineBox",
          "reason": "full"
        },
        {
          "object": "RootInlineBox",
          "reason": "full"
        },
        {
          "object": "RootInlineBox",
          "reason": "full"
        },
        {
          "object": "RootInlineBox",
          "reason": "full"
        }
      ]
    }
  ]
}

