{
  "bounds": [800, 600],
  "children": [
    {
      "bounds": [800, 600],
      "contentsOpaque": true,
      "drawsContent": true,
      "paintInvalidations": [
        {
          "object": "LayoutBlockFlow DIV",
          "rect": [8, 64, 784, 280],
          "reason": "style change"
        },
        {
          "object": "LayoutBlockFlow (anonymous)",
          "rect": [8, 64, 784, 100],
          "reason": "layoutObject insertion"
        },
        {
          "object": "LayoutBlockFlow (anonymous)",
          "rect": [8, 264, 784, 80],
          "reason": "layoutObject insertion"
        },
        {
          "object": "LayoutText #text",
          "rect": [8, 264, 105, 19],
          "reason": "layoutObject insertion"
        },
        {
          "object": "LayoutText #text",
          "rect": [8, 164, 105, 19],
          "reason": "layoutObject insertion"
        },
        {
          "object": "LayoutText #text",
          "rect": [8, 144, 77, 19],
          "reason": "layoutObject insertion"
        },
        {
          "object": "LayoutText #text",
          "rect": [8, 104, 77, 19],
          "reason": "layoutObject insertion"
        },
        {
          "object": "LayoutText #text",
          "rect": [8, 284, 65, 19],
          "reason": "layoutObject insertion"
        },
        {
          "object": "LayoutText #text",
          "rect": [8, 184, 65, 19],
          "reason": "layoutObject insertion"
        },
        {
          "object": "LayoutText #text",
          "rect": [8, 324, 61, 19],
          "reason": "layoutObject insertion"
        },
        {
          "object": "LayoutText #text",
          "rect": [8, 224, 61, 19],
          "reason": "layoutObject insertion"
        },
        {
          "object": "LayoutText #text",
          "rect": [8, 124, 42, 19],
          "reason": "layoutObject insertion"
        },
        {
          "object": "LayoutText #text",
          "rect": [8, 84, 42, 19],
          "reason": "layoutObject insertion"
        },
        {
          "object": "LayoutText #text",
          "rect": [8, 64, 39, 19],
          "reason": "layoutObject insertion"
        },
        {
          "object": "LayoutText #text",
          "rect": [8, 304, 27, 19],
          "reason": "layoutObject insertion"
        },
        {
          "object": "LayoutText #text",
          "rect": [8, 204, 27, 19],
          "reason": "layoutObject insertion"
        },
        {
          "object": "LayoutBlockFlow DIV id='target'",
          "rect": [8, 164, 10, 100],
          "reason": "layoutObject insertion"
        },
        {
          "object": "InlineTextBox '\n'",
          "reason": "full"
        },
        {
          "object": "InlineTextBox '\n'",
          "reason": "full"
        },
        {
          "object": "InlineTextBox '\n'",
          "reason": "full"
        },
        {
          "object": "InlineTextBox '\n'",
          "reason": "full"
        },
        {
          "object": "InlineTextBox '\n'",
          "reason": "full"
        },
        {
          "object": "InlineTextBox '\n'",
          "reason": "full"
        },
        {
          "object": "InlineTextBox '\n'",
          "reason": "full"
        },
        {
          "object": "InlineTextBox '\n'",
          "reason": "full"
        },
        {
          "object": "InlineTextBox '\n'",
          "reason": "layoutObject insertion"
        },
        {
          "object": "InlineTextBox '\n'",
          "reason": "layoutObject insertion"
        },
        {
          "object": "InlineTextBox '\n'",
          "reason": "layoutObject insertion"
        },
        {
          "object": "InlineTextBox '\n'",
          "reason": "layoutObject insertion"
        },
        {
          "object": "InlineTextBox '\n'",
          "reason": "layoutObject insertion"
        },
        {
          "object": "InlineTextBox '\n'",
          "reason": "layoutObject insertion"
        },
        {
          "object": "InlineTextBox '\n'",
          "reason": "layoutObject insertion"
        },
        {
          "object": "InlineTextBox '\n'",
          "reason": "layoutObject insertion"
        },
        {
          "object": "InlineTextBox 'I could'",
          "reason": "full"
        },
        {
          "object": "InlineTextBox 'I could'",
          "reason": "layoutObject insertion"
        },
        {
          "object": "InlineTextBox 'Word,'",
          "reason": "full"
        },
        {
          "object": "InlineTextBox 'Word,'",
          "reason": "layoutObject insertion"
        },
        {
          "object": "InlineTextBox 'about all the stuff'",
          "reason": "full"
        },
        {
          "object": "InlineTextBox 'about all the stuff'",
          "reason": "layoutObject insertion"
        },
        {
          "object": "InlineTextBox 'after'",
          "reason": "full"
        },
        {
          "object": "InlineTextBox 'after'",
          "reason": "layoutObject insertion"
        },
        {
          "object": "InlineTextBox 'more words.'",
          "reason": "full"
        },
        {
          "object": "InlineTextBox 'more words.'",
          "reason": "layoutObject insertion"
        },
        {
          "object": "InlineTextBox 'that comes'",
          "reason": "full"
        },
        {
          "object": "InlineTextBox 'that comes'",
          "reason": "layoutObject insertion"
        },
        {
          "object": "InlineTextBox 'the break.'",
          "reason": "full"
        },
        {
          "object": "InlineTextBox 'the break.'",
          "reason": "layoutObject insertion"
        },
        {
          "object": "InlineTextBox 'words,'",
          "reason": "full"
        },
        {
          "object": "InlineTextBox 'words,'",
          "reason": "layoutObject insertion"
        },
        {
          "object": "InlineTextBox 'write a book'",
          "reason": "full"
        },
        {
          "object": "InlineTextBox 'write a book'",
          "reason": "layoutObject insertion"
        },
        {
          "object": "LayoutBR BR",
          "reason": "layoutObject insertion"
        },
        {
          "object": "LayoutBR BR",
          "reason": "layoutObject insertion"
        },
        {
          "object": "LayoutBR BR",
          "reason": "layoutObject insertion"
        },
        {
          "object": "LayoutBR BR",
          "reason": "layoutObject insertion"
        },
        {
          "object": "LayoutBR BR",
          "reason": "layoutObject insertion"
        },
        {
          "object": "LayoutBR BR",
          "reason": "layoutObject insertion"
        },
        {
          "object": "LayoutBR BR",
          "reason": "layoutObject insertion"
        },
        {
          "object": "LayoutBR BR",
          "reason": "layoutObject insertion"
        },
        {
          "object": "RootInlineBox",
          "reason": "full"
        },
        {
          "object": "RootInlineBox",
          "reason": "full"
        },
        {
          "object": "RootInlineBox",
          "reason": "full"
        },
        {
          "object": "RootInlineBox",
          "reason": "full"
        },
        {
          "object": "RootInlineBox",
          "reason": "full"
        },
        {
          "object": "RootInlineBox",
          "reason": "full"
        },
        {
          "object": "RootInlineBox",
          "reason": "full"
        },
        {
          "object": "RootInlineBox",
          "reason": "full"
        },
        {
          "object": "RootInlineBox",
          "reason": "full"
        },
        {
          "object": "RootInlineBox",
          "reason": "full"
        },
        {
          "object": "RootInlineBox",
          "reason": "full"
        }
      ]
    }
  ]
}

