{
  "bounds": [800, 600],
  "children": [
    {
      "bounds": [800, 600],
      "contentsOpaque": true,
      "drawsContent": true,
      "paintInvalidations": [
        {
          "object": "LayoutBlockFlow (positioned) DIV",
          "rect": [100, 200, 100, 100],
          "reason": "bounds change"
        },
        {
          "object": "LayoutBlockFlow (positioned) DIV",
          "rect": [100, 100, 100, 100],
          "reason": "bounds change"
        },
        {
          "object": "LayoutText #text",
          "rect": [100, 200, 38, 19],
          "reason": "bounds change"
        },
        {
          "object": "LayoutText #text",
          "rect": [100, 100, 38, 19],
          "reason": "bounds change"
        },
        {
          "object": "InlineTextBox 'Target'",
          "reason": "bounds change"
        },
        {
          "object": "LayoutBlockFlow (positioned) DIV",
          "reason": "bounds change"
        },
        {
          "object": "LayoutBlockFlow (positioned) DIV",
          "reason": "bounds change"
        },
        {
          "object": "LayoutBlockFlow (positioned) DIV id='great-grandparent'",
          "reason": "bounds change"
        },
        {
          "object": "RootInlineBox",
          "reason": "full"
        }
      ]
    }
  ]
}

