{
  "bounds": [800, 600],
  "children": [
    {
      "bounds": [800, 600],
      "contentsOpaque": true,
      "drawsContent": true,
      "paintInvalidations": [
        {
          "object": "LayoutBlockFlow DIV id='inner-editor'",
          "rect": [12, 47, 136, 16],
          "reason": "forced by layout"
        },
        {
          "object": "LayoutText #text",
          "rect": [12, 47, 58, 16],
          "reason": "layoutObject insertion"
        },
        {
          "object": "InlineTextBox 'some text'",
          "reason": "layoutObject insertion"
        },
        {
          "object": "RootInlineBox",
          "reason": "full"
        }
      ]
    }
  ]
}

