{
  "bounds": [800, 600],
  "children": [
    {
      "bounds": [800, 600],
      "contentsOpaque": true,
      "drawsContent": true,
      "paintInvalidations": [
        {
          "object": "LayoutText #text",
          "rect": [773, 43, 19, 77],
          "reason": "selection"
        },
        {
          "object": "InlineTextBox 'Testing both hit testing'",
          "reason": "selection"
        },
        {
          "object": "LayoutBlockFlow BODY",
          "reason": "selection"
        },
        {
          "object": "LayoutBlockFlow HTML",
          "reason": "selection"
        }
      ]
    }
  ]
}

