{
  "bounds": [800, 600],
  "children": [
    {
      "bounds": [800, 600],
      "contentsOpaque": true,
      "drawsContent": true,
      "paintInvalidations": [
        {
          "object": "LayoutTableCell TD id='t3'",
          "rect": [220, 264, 122, 110],
          "reason": "style change"
        },
        {
          "object": "LayoutTableCell TD id='t1'",
          "rect": [220, 64, 122, 108],
          "reason": "style change"
        },
        {
          "object": "LayoutTableCell TD id='t2'",
          "rect": [3, 264, 118, 110],
          "reason": "style change"
        },
        {
          "object": "LayoutTableCell TD",
          "reason": "full"
        },
        {
          "object": "LayoutTableCell TD",
          "reason": "full"
        },
        {
          "object": "LayoutTableCell TD",
          "reason": "full"
        },
        {
          "object": "LayoutTableCell TD",
          "reason": "full"
        },
        {
          "object": "LayoutTableCell TD",
          "reason": "full"
        },
        {
          "object": "LayoutTableCell TD",
          "reason": "full"
        },
        {
          "object": "LayoutTableCell TD",
          "reason": "full"
        },
        {
          "object": "LayoutTableCell TD",
          "reason": "full"
        },
        {
          "object": "LayoutTableCell TD id='t1'",
          "reason": "full"
        },
        {
          "object": "LayoutTableCell TD id='t2'",
          "reason": "full"
        },
        {
          "object": "LayoutTableCell TD id='t3'",
          "reason": "full"
        }
      ]
    }
  ]
}

