{
  "bounds": [785, 1016],
  "children": [
    {
      "bounds": [785, 1016],
      "contentsOpaque": true,
      "drawsContent": true,
      "children": [
        {
          "shouldFlattenTransform": false,
          "children": [
            {
              "position": [8, 8],
              "bounds": [200, 1000],
              "contentsOpaque": true,
              "drawsContent": true,
              "backgroundColor": "#D3D3D3"
            },
            {
              "position": [8, 0],
              "bounds": [300, 654],
              "drawsContent": true,
              "paintInvalidations": [
                {
                  "object": "LayoutView #document",
                  "rect": [0, 500, 300, 150],
                  "reason": "style change"
                },
                {
                  "object": "LayoutBlockFlow HTML",
                  "rect": [0, 500, 300, 34],
                  "reason": "forced by layout"
                },
                {
                  "object": "LayoutBlockFlow HTML",
                  "rect": [0, 500, 285, 150],
                  "reason": "forced by layout"
                },
                {
                  "object": "LayoutView #document",
                  "rect": [0, 500, 285, 150],
                  "reason": "full"
                },
                {
                  "object": "LayoutBlockFlow BODY",
                  "rect": [8, 508, 284, 18],
                  "reason": "forced by layout"
                },
                {
                  "object": "LayoutBlockFlow BODY",
                  "rect": [8, 508, 269, 142],
                  "reason": "forced by layout"
                },
                {
                  "object": "LayoutView #document",
                  "rect": [285, 500, 15, 150],
                  "reason": "scroll"
                },
                {
                  "object": "InlineTextBox 'test1'",
                  "reason": "full"
                },
                {
                  "object": "InlineTextBox 'test1'",
                  "reason": "full"
                },
                {
                  "object": "LayoutView #document",
                  "reason": "scroll"
                },
                {
                  "object": "RootInlineBox",
                  "reason": "full"
                },
                {
                  "object": "RootInlineBox",
                  "reason": "full"
                },
                {
                  "object": "RootInlineBox",
                  "reason": "full"
                },
                {
                  "object": "VerticalScrollbar",
                  "reason": "scroll"
                }
              ]
            }
          ]
        }
      ]
    }
  ]
}

