{
  "bounds": [800, 600],
  "children": [
    {
      "bounds": [800, 600],
      "contentsOpaque": true,
      "drawsContent": true,
      "children": [
        {
          "position": [8, 108],
          "bounds": [200, 200],
          "shouldFlattenTransform": false,
          "drawsContent": true,
          "paintInvalidations": [
            {
              "object": "LayoutText #text",
              "rect": [0, 190, 74, 19],
              "reason": "style change"
            },
            {
              "object": "LayoutText #text",
              "rect": [0, 170, 74, 19],
              "reason": "style change"
            },
            {
              "object": "LayoutText #text",
              "rect": [0, 150, 74, 19],
              "reason": "style change"
            },
            {
              "object": "LayoutText #text",
              "rect": [0, 130, 74, 19],
              "reason": "style change"
            },
            {
              "object": "LayoutText #text",
              "rect": [0, 110, 74, 19],
              "reason": "style change"
            },
            {
              "object": "LayoutText #text",
              "rect": [0, 90, 74, 19],
              "reason": "style change"
            },
            {
              "object": "LayoutText #text",
              "rect": [0, 70, 74, 19],
              "reason": "style change"
            },
            {
              "object": "LayoutText #text",
              "rect": [0, 50, 74, 19],
              "reason": "style change"
            },
            {
              "object": "LayoutText #text",
              "rect": [0, 30, 74, 19],
              "reason": "style change"
            },
            {
              "object": "LayoutText #text",
              "rect": [0, 10, 74, 19],
              "reason": "style change"
            },
            {
              "object": "LayoutText #text",
              "rect": [0, -10, 74, 19],
              "reason": "style change"
            },
            {
              "object": "LayoutText #text",
              "rect": [0, -30, 74, 19],
              "reason": "style change"
            },
            {
              "object": "LayoutText #text",
              "rect": [0, -50, 74, 19],
              "reason": "style change"
            },
            {
              "object": "InlineTextBox 'CONTENT'",
              "reason": "style change"
            },
            {
              "object": "InlineTextBox 'CONTENT'",
              "reason": "style change"
            },
            {
              "object": "InlineTextBox 'CONTENT'",
              "reason": "style change"
            },
            {
              "object": "InlineTextBox 'CONTENT'",
              "reason": "style change"
            },
            {
              "object": "InlineTextBox 'CONTENT'",
              "reason": "style change"
            },
            {
              "object": "InlineTextBox 'CONTENT'",
              "reason": "style change"
            },
            {
              "object": "InlineTextBox 'CONTENT'",
              "reason": "style change"
            },
            {
              "object": "InlineTextBox 'CONTENT'",
              "reason": "style change"
            },
            {
              "object": "InlineTextBox 'CONTENT'",
              "reason": "style change"
            },
            {
              "object": "InlineTextBox 'CONTENT'",
              "reason": "style change"
            },
            {
              "object": "InlineTextBox 'CONTENT'",
              "reason": "style change"
            },
            {
              "object": "InlineTextBox 'CONTENT'",
              "reason": "style change"
            },
            {
              "object": "InlineTextBox 'CONTENT'",
              "reason": "style change"
            }
          ],
          "children": [
            {
              "bounds": [185, 185],
              "shouldFlattenTransform": false,
              "children": [
                {
                  "bounds": [185, 260],
                  "drawsContent": true,
                  "paintInvalidations": [
                    {
                      "object": "LayoutText #text",
                      "rect": [0, 240, 74, 19],
                      "reason": "style change"
                    },
                    {
                      "object": "LayoutText #text",
                      "rect": [0, 220, 74, 19],
                      "reason": "style change"
                    },
                    {
                      "object": "LayoutText #text",
                      "rect": [0, 200, 74, 19],
                      "reason": "style change"
                    },
                    {
                      "object": "LayoutText #text",
                      "rect": [0, 180, 74, 19],
                      "reason": "style change"
                    },
                    {
                      "object": "LayoutText #text",
                      "rect": [0, 160, 74, 19],
                      "reason": "style change"
                    },
                    {
                      "object": "LayoutText #text",
                      "rect": [0, 140, 74, 19],
                      "reason": "style change"
                    },
                    {
                      "object": "LayoutText #text",
                      "rect": [0, 120, 74, 19],
                      "reason": "style change"
                    },
                    {
                      "object": "LayoutText #text",
                      "rect": [0, 100, 74, 19],
                      "reason": "style change"
                    },
                    {
                      "object": "LayoutText #text",
                      "rect": [0, 80, 74, 19],
                      "reason": "style change"
                    },
                    {
                      "object": "LayoutText #text",
                      "rect": [0, 60, 74, 19],
                      "reason": "style change"
                    },
                    {
                      "object": "LayoutText #text",
                      "rect": [0, 40, 74, 19],
                      "reason": "style change"
                    },
                    {
                      "object": "LayoutText #text",
                      "rect": [0, 20, 74, 19],
                      "reason": "style change"
                    },
                    {
                      "object": "LayoutText #text",
                      "rect": [0, 0, 74, 19],
                      "reason": "style change"
                    },
                    {
                      "object": "InlineTextBox 'CONTENT'",
                      "reason": "style change"
                    },
                    {
                      "object": "InlineTextBox 'CONTENT'",
                      "reason": "style change"
                    },
                    {
                      "object": "InlineTextBox 'CONTENT'",
                      "reason": "style change"
                    },
                    {
                      "object": "InlineTextBox 'CONTENT'",
                      "reason": "style change"
                    },
                    {
                      "object": "InlineTextBox 'CONTENT'",
                      "reason": "style change"
                    },
                    {
                      "object": "InlineTextBox 'CONTENT'",
                      "reason": "style change"
                    },
                    {
                      "object": "InlineTextBox 'CONTENT'",
                      "reason": "style change"
                    },
                    {
                      "object": "InlineTextBox 'CONTENT'",
                      "reason": "style change"
                    },
                    {
                      "object": "InlineTextBox 'CONTENT'",
                      "reason": "style change"
                    },
                    {
                      "object": "InlineTextBox 'CONTENT'",
                      "reason": "style change"
                    },
                    {
                      "object": "InlineTextBox 'CONTENT'",
                      "reason": "style change"
                    },
                    {
                      "object": "InlineTextBox 'CONTENT'",
                      "reason": "style change"
                    },
                    {
                      "object": "InlineTextBox 'CONTENT'",
                      "reason": "style change"
                    }
                  ]
                }
              ]
            },
            {
              "bounds": [200, 200],
              "children": [
                {
                  "position": [0, 185],
                  "bounds": [185, 15]
                },
                {
                  "position": [185, 0],
                  "bounds": [15, 185]
                },
                {
                  "position": [185, 185],
                  "bounds": [15, 15],
                  "drawsContent": true
                }
              ]
            }
          ]
        }
      ]
    }
  ]
}

